sno,userid,vignette,qno,timestamp,attempts,matrix
1,555,1,1,2012-08-24 10:18:18,1,[1430]
2,555,1,2,2012-08-24 10:18:49,3,[254:610:2660]
3,555,1,3,2012-08-24 10:21:39,1,[1393]
4,555,1,4,2012-08-24 10:22:17,1,[3976]
5,5551,1,1,2012-08-24 12:59:32,1,[2668]
6,5551,1,2,2012-08-24 13:02:55,4,[25547:25786:26018:26232]
7,5551,1,3,2012-08-24 13:04:18,1,[2307]
8,5551,1,4,2012-08-24 13:04:51,1,[3910]
9,10131,1,1,2012-08-24 15:26:41,1,[8095]
10,10131,1,2,2012-08-24 15:26:47,1,[445]
11,4444,1,1,2012-08-24 18:26:23,1,[2490]
12,4444,1,2,2012-08-24 18:26:58,3,[3016:4597:6616]
13,4444,1,3,2012-08-24 18:28:32,1,[3426]
14,4444,1,4,2012-08-24 18:51:27,1,[NaN]
15,10015,1,1,2012-08-25 10:36:21,1,[10541]
16,10015,1,2,2012-08-25 10:36:35,1,[2607]
17,10015,1,3,2012-08-25 10:37:42,1,[5141]
18,10015,1,4,2012-08-25 10:37:56,1,[2355]
19,6070,1,1,2012-08-27 07:24:23,1,[2193]
20,6070,1,2,2012-08-27 07:24:28,1,[333]
21,6070,1,3,2012-08-27 07:32:51,1,[7756]
22,6070,1,4,2012-08-27 07:33:08,1,[2183]
23,10131,2,3,2012-08-27 11:31:13,1,[119365]
24,10131,2,4,2012-08-27 11:32:29,4,[2442:2799:3068:3320]
25,10131,2,5,2012-08-27 11:34:46,1,[23794]
26,10131,2,6,2012-08-27 11:35:38,4,[4409:4861:5182:5709]
27,6070,1,1,2012-08-27 17:55:18,1,[4625]
28,6070,1,2,2012-08-27 17:55:35,3,[2515:2716:2931]
29,6070,1,3,2012-08-27 17:56:44,1,[3741]
30,6070,1,4,2012-08-27 17:56:55,1,[1342]
31,6070,1,1,2012-08-27 19:16:31,1,[30491]
32,6070,1,2,2012-08-27 19:17:01,3,[1777:2090:5546]
33,6070,1,3,2012-08-27 19:18:11,1,[3791]
34,6070,1,4,2012-08-27 19:18:45,1,[6439]
35,6442450948,1,1,2012-08-28 07:37:05,1,[4637]
36,6442450948,1,2,2012-08-28 07:37:22,4,[446:626:819:2212]
37,6442450948,1,3,2012-08-28 07:39:54,1,[6446]
38,6442450948,1,4,2012-08-28 07:40:13,1,[2626]
39,6070,2,1,2012-08-29 05:53:11,1,[4537]
40,6070,2,2,2012-08-29 05:53:27,1,[857]
