sno,userid,vignette,qno,timestamp,attempts,matrix
1,555,1,1,2012-08-24 10:18:18,1,[1430]
2,555,1,2,2012-08-24 10:18:49,3,[254:610:2660]
3,555,1,3,2012-08-24 10:21:39,1,[1393]
4,555,1,4,2012-08-24 10:22:17,1,[3976]
5,5551,1,1,2012-08-24 12:59:32,1,[2668]
6,5551,1,2,2012-08-24 13:02:55,4,[25547:25786:26018:26232]
7,5551,1,3,2012-08-24 13:04:18,1,[2307]
8,5551,1,4,2012-08-24 13:04:51,1,[3910]
9,10131,1,1,2012-08-24 15:26:41,1,[8095]
10,10131,1,2,2012-08-24 15:26:47,1,[445]
11,4444,1,1,2012-08-24 18:26:23,1,[2490]
12,4444,1,2,2012-08-24 18:26:58,3,[3016:4597:6616]
13,4444,1,3,2012-08-24 18:28:32,1,[3426]
14,4444,1,4,2012-08-24 18:51:27,1,[NaN]
15,10015,1,1,2012-08-25 10:36:21,1,[10541]
16,10015,1,2,2012-08-25 10:36:35,1,[2607]
17,10015,1,3,2012-08-25 10:37:42,1,[5141]
18,10015,1,4,2012-08-25 10:37:56,1,[2355]
19,6070,1,1,2012-08-27 07:24:23,1,[2193]
20,6070,1,2,2012-08-27 07:24:28,1,[333]
21,6070,1,3,2012-08-27 07:32:51,1,[7756]
22,6070,1,4,2012-08-27 07:33:08,1,[2183]
23,10131,2,3,2012-08-27 11:31:13,1,[119365]
24,10131,2,4,2012-08-27 11:32:29,4,[2442:2799:3068:3320]
25,10131,2,5,2012-08-27 11:34:46,1,[23794]
26,10131,2,6,2012-08-27 11:35:38,4,[4409:4861:5182:5709]
27,6070,1,1,2012-08-27 17:55:18,1,[4625]
28,6070,1,2,2012-08-27 17:55:35,3,[2515:2716:2931]
29,6070,1,3,2012-08-27 17:56:44,1,[3741]
30,6070,1,4,2012-08-27 17:56:55,1,[1342]
31,6070,1,1,2012-08-27 19:16:31,1,[30491]
32,6070,1,2,2012-08-27 19:17:01,3,[1777:2090:5546]
33,6070,1,3,2012-08-27 19:18:11,1,[3791]
34,6070,1,4,2012-08-27 19:18:45,1,[6439]
35,6442450948,1,1,2012-08-28 07:37:05,1,[4637]
36,6442450948,1,2,2012-08-28 07:37:22,4,[446:626:819:2212]
37,6442450948,1,3,2012-08-28 07:39:54,1,[6446]
38,6442450948,1,4,2012-08-28 07:40:13,1,[2626]
39,6070,2,1,2012-08-29 05:53:11,1,[4537]
40,6070,2,2,2012-08-29 05:53:27,1,[857]
41,6070,2,3,2012-08-29 06:20:31,1,[83976]
42,6070,2,4,2012-08-29 06:22:54,4,[18431:19231:29441:29859]
43,6070,2,5,2012-08-29 06:23:17,4,[4050:4328:4628:4896]
44,6070,2,6,2012-08-29 06:23:55,1,[4648]
45,6442450948,1,1,2012-08-29 09:15:49,1,[4740]
46,6442450948,1,2,2012-08-29 09:16:02,1,[1613]
47,6442450948,1,3,2012-08-29 09:18:03,1,[6848]
48,6442450948,1,4,2012-08-29 09:18:16,1,[1512]
49,6442450970,1,1,2012-08-29 10:32:10,1,[3674]
50,6442450970,1,2,2012-08-29 10:32:22,1,[2050]
51,6442450970,1,3,2012-08-29 10:33:28,1,[6152]
52,6442450970,1,4,2012-08-29 10:33:44,1,[2796]
53,6442450980,1,1,2012-08-31 19:06:00,1,[3154]
54,6442450980,1,2,2012-08-31 19:06:27,1,[4798]
55,6442450980,1,3,2012-08-31 19:07:07,1,[2214]
56,6442450980,1,4,2012-08-31 19:07:17,1,[1245]
57,9441,5,1,2012-09-03 02:28:12,0,[0]
58,9441,5,2,2012-09-03 02:30:07,0,[1]
59,9441,5,3,2012-09-03 02:31:03,0,[1]
60,kayjay,5,1,2012-09-03 06:27:43,0,[1]
61,kayjay,5,2,2012-09-03 06:28:59,0,[0]
62,kayjay,5,3,2012-09-03 06:30:14,0,[5]
63,kayjay,5,4,2012-09-03 06:32:05,0,[0]
64,kayjay,5,5,2012-09-03 06:32:50,0,[0]
65,kayjay,5,6,2012-09-03 06:34:08,0,[0]
66,kayjay,5,7,2012-09-03 06:37:20,0,[2]
67,kayjay,5,8,2012-09-03 06:38:31,0,[1]
68,kayjay,5,9,2012-09-03 06:38:54,0,[3]
69,kayjay,5,10,2012-09-03 06:41:05,0,[1]
70,Jonas,4,1,2012-09-03 07:02:24,2,[9239:9881]
71,Jonas,4,2,2012-09-03 07:02:53,2,[2919:3463]
72,Jonas,4,3,2012-09-03 07:03:15,1,[2056]
73,Jonas,4,4,2012-09-03 07:03:57,1,[7292]
74,Jonas,4,5,2012-09-03 07:05:29,1,[17078]
75,AJ,4,1,2012-09-03 07:07:39,3,[1769:1974:2210]
76,AJ,4,2,2012-09-03 07:08:11,1,[4072]
77,Jonas,4,6,2012-09-03 07:08:28,1,[30027]
78,Jonas,4,7,2012-09-03 07:08:55,3,[2075:2519:2913]
79,AJ,4,3,2012-09-03 07:08:56,4,[6176:6854:7060:7160]
80,AJ,4,4,2012-09-03 07:09:16,2,[2585:2690]
81,Jonas,4,8,2012-09-03 07:09:33,2,[960:1530]
82,Jonas,4,9,2012-09-03 07:09:49,4,[807:1274:1530:1784]
83,Jonas,4,10,2012-09-03 07:10:06,1,[753]
84,AJ,4,5,2012-09-03 07:10:49,1,[16990]
85,Kevvv,5,1,2012-09-03 07:14:27,0,[0]
86,Kevvv,5,2,2012-09-03 07:15:51,0,[1]
87,Kevvv,5,3,2012-09-03 07:17:08,0,[5]
88,Kevvv,5,4,2012-09-03 07:19:08,0,[0]
89,Kevvv,5,5,2012-09-03 07:19:30,0,[1]
90,Kevvv,5,6,2012-09-03 07:20:40,0,[0]
91,Kevvv,5,7,2012-09-03 07:23:52,0,[1]
92,Kevvv,5,8,2012-09-03 07:25:07,0,[0]
93,Kevvv,5,9,2012-09-03 07:25:25,0,[3]
94,Kevvv,5,10,2012-09-03 07:27:32,0,[0]
95,AJ2,4,1,2012-09-03 07:30:15,3,[1667:1777:2394]
96,AJ2,4,2,2012-09-03 07:30:48,1,[4613]
97,Cunt Features,5,1,2012-09-03 07:31:03,0,[1]
98,AJ2,4,3,2012-09-03 07:31:06,3,[562:825:975]
99,AJ2,4,4,2012-09-03 07:31:16,2,[250:374]
100,Cunt Features,5,2,2012-09-03 07:32:17,0,[0]
101,AJ2,4,5,2012-09-03 07:33:03,1,[20527]
102,Cunt Features,5,3,2012-09-03 07:33:36,0,[5]
103,AJ2,4,6,2012-09-03 07:34:27,1,[9110]
104,AJ2,4,7,2012-09-03 07:34:45,1,[510]
105,Cunt Features,5,4,2012-09-03 07:35:12,0,[1]
106,AJ2,4,8,2012-09-03 07:35:18,1,[362]
107,AJ2,4,9,2012-09-03 07:35:30,4,[396:501:610:738]
108,Cunt Features,5,5,2012-09-03 07:35:38,0,[0]
109,AJ2,4,10,2012-09-03 07:35:58,2,[2566:3361]
110,Cunt Features,5,6,2012-09-03 07:36:49,0,[1]
111,Cunt Features,5,7,2012-09-03 07:40:15,0,[1]
112,AJ3,5,1,2012-09-03 07:40:53,0,[0]
113,Cunt Features,5,8,2012-09-03 07:41:53,0,[1]
114,Cunt Features,5,9,2012-09-03 07:42:38,0,[0]
115,Cunt Features,5,10,2012-09-03 07:44:39,0,[0]
116,AJ3,5,2,2012-09-03 07:44:45,0,[1]
117,AJ3,5,3,2012-09-03 07:45:51,0,[5]
118,AJ3,5,4,2012-09-03 07:48:43,0,[0]
119,AJ3,5,5,2012-09-03 07:49:27,0,[1]
120,AJ3,5,6,2012-09-03 07:51:22,0,[0]
121,v,4,1,2012-09-03 07:52:33,4,[1639:2010:2262:2462]
122,kayjay,5,1,2012-09-03 07:52:55,0,[1]
123,v,4,2,2012-09-03 07:52:58,2,[2180:2550]
124,v,4,3,2012-09-03 07:53:18,4,[928:1188:1346:1621]
125,v,4,4,2012-09-03 07:53:29,1,[612]
126,kayjay,5,2,2012-09-03 07:54:10,0,[1]
127,AJ3,5,7,2012-09-03 07:54:34,0,[2]
128,v,4,5,2012-09-03 07:54:43,1,[12955]
129,AJ3,5,8,2012-09-03 07:55:45,0,[1]
130,v,4,6,2012-09-03 07:55:54,1,[7095]
131,AJ3,5,9,2012-09-03 07:56:10,0,[0]
132,v,4,7,2012-09-03 07:56:15,1,[1828]
133,v,4,8,2012-09-03 07:56:52,4,[446:682:901:1213]
134,v,4,9,2012-09-03 07:57:15,1,[3198]
135,v,4,10,2012-09-03 07:57:35,1,[1581]
136,AJ3,5,10,2012-09-03 07:58:25,0,[1]
137,kayjay,5,3,2012-09-03 07:59:55,0,[3]
138,Hoffman,4,1,2012-09-03 11:03:02,7,[1474:1928:2205:2765:3040:4397:4607]
139,Hoffman,4,2,2012-09-03 11:05:29,1,[661]
140,Hoffman,4,3,2012-09-03 11:05:44,1,[462]
141,Hoffman,4,4,2012-09-03 11:05:56,2,[684:856]
142,333,5,1,2012-09-03 11:09:23,0,[1]
143,333,5,2,2012-09-03 11:10:37,0,[0]
144,333,5,3,2012-09-03 11:12:48,0,[3]
145,333,5,4,2012-09-03 11:16:05,0,[2]
146,333,5,5,2012-09-03 11:16:28,0,[1]
147,333,5,6,2012-09-03 11:17:32,0,[1]
148,Kochan,5,1,2012-09-03 12:03:48,0,[1]
149,Kochan,5,2,2012-09-03 12:05:05,0,[1]
150,Kochan,5,3,2012-09-03 12:06:24,0,[5]
151,Chutzpag,4,1,2012-09-04 04:17:16,2,[1778:1922]
152,Chutzpag,4,2,2012-09-04 04:17:31,1,[567]
153,Chutzpag,4,3,2012-09-04 04:18:09,2,[550:1959]
154,Chutzpag,4,4,2012-09-04 04:31:58,1,[2407]
155,Chutzpag,4,5,2012-09-04 04:37:47,1,[43675]
156,SR,4,1,2012-09-04 04:49:36,3,[6738:7081:7448]
157,SR,4,2,2012-09-04 04:50:08,3,[4508:4595:4730]
158,SR,4,3,2012-09-04 04:50:56,2,[8414:8725]
159,SR,4,4,2012-09-04 04:51:36,3,[7052:7413:7688]
160,Chutzpag,4,6,2012-09-04 04:53:33,1,[20960]
161,SR,4,5,2012-09-04 04:53:35,1,[25217]
162,Chutzpag,4,7,2012-09-04 04:54:00,4,[1586:2038:2323:2636]
163,Chutzpag,4,8,2012-09-04 04:55:38,1,[454]
164,Chutzpag,4,9,2012-09-04 04:55:50,1,[1061]
165,Chutzpag,4,10,2012-09-04 04:56:19,1,[3548]
166,SR,4,6,2012-09-04 04:57:22,1,[27752]
167,SR,4,7,2012-09-04 04:58:06,1,[7509]
168,SR,4,8,2012-09-04 04:59:34,2,[13486:13690]
169,SR,4,9,2012-09-04 05:00:10,3,[6496:6698:6910]
170,SR,4,10,2012-09-04 05:00:47,1,[5811]
171,SR,5,1,2012-09-04 05:15:44,0,[1]
172,SR,5,2,2012-09-04 05:17:08,0,[1]
173,SR,5,3,2012-09-04 05:18:27,0,[5]
174,SR,5,4,2012-09-04 05:20:29,0,[2]
175,SR,5,5,2012-09-04 05:21:01,0,[0]
176,SR,5,6,2012-09-04 05:22:07,0,[1]
177,SR,5,7,2012-09-04 05:24:58,0,[2]
178,SR,5,8,2012-09-04 05:28:12,0,[0]
179,SR,5,9,2012-09-04 05:28:34,0,[1]
180,SR,5,10,2012-09-04 05:30:56,0,[2]
181,6442450970,5,1,2012-09-04 08:29:19,0,[1]
182,6442450970,5,2,2012-09-04 08:30:31,0,[1]
183,6442450970,5,3,2012-09-04 08:31:40,0,[5]
184,Bruce,2,1,2012-09-04 08:48:20,1,[804]
185,Heshie,4,1,2012-09-05 15:44:10,1,[15354]
186,Heshie,4,2,2012-09-05 15:45:20,1,[13697]
187,Heshie,4,3,2012-09-05 15:47:05,1,[20497]
188,Heshie,4,4,2012-09-05 15:48:03,1,[11539]
189,Heshie,4,5,2012-09-05 15:52:22,1,[54385]
190,Josh,1,1,2012-09-06 08:29:05,1,[9486]
191,Josh,1,2,2012-09-06 08:29:25,1,[3514]
192,Josh,1,3,2012-09-06 08:30:21,1,[4068]
193,Josh,1,4,2012-09-06 08:30:39,1,[3060]
194,geffy,5,1,2012-09-06 09:22:45,0,[1]
195,geffy,5,2,2012-09-06 09:24:01,0,[0]
196,geffy,5,3,2012-09-06 09:25:19,0,[5]
