sno,userid,vignette,qno,timestamp,attempts,matrix
1,555,1,1,2012-08-24 10:18:18,1,[1430]
2,555,1,2,2012-08-24 10:18:49,3,[254:610:2660]
3,555,1,3,2012-08-24 10:21:39,1,[1393]
4,555,1,4,2012-08-24 10:22:17,1,[3976]
5,5551,1,1,2012-08-24 12:59:32,1,[2668]
6,5551,1,2,2012-08-24 13:02:55,4,[25547:25786:26018:26232]
7,5551,1,3,2012-08-24 13:04:18,1,[2307]
8,5551,1,4,2012-08-24 13:04:51,1,[3910]
9,10131,1,1,2012-08-24 15:26:41,1,[8095]
10,10131,1,2,2012-08-24 15:26:47,1,[445]
11,4444,1,1,2012-08-24 18:26:23,1,[2490]
12,4444,1,2,2012-08-24 18:26:58,3,[3016:4597:6616]
13,4444,1,3,2012-08-24 18:28:32,1,[3426]
14,4444,1,4,2012-08-24 18:51:27,1,[NaN]
15,10015,1,1,2012-08-25 10:36:21,1,[10541]
16,10015,1,2,2012-08-25 10:36:35,1,[2607]
17,10015,1,3,2012-08-25 10:37:42,1,[5141]
18,10015,1,4,2012-08-25 10:37:56,1,[2355]
19,6070,1,1,2012-08-27 07:24:23,1,[2193]
20,6070,1,2,2012-08-27 07:24:28,1,[333]
21,6070,1,3,2012-08-27 07:32:51,1,[7756]
22,6070,1,4,2012-08-27 07:33:08,1,[2183]
23,10131,2,3,2012-08-27 11:31:13,1,[119365]
24,10131,2,4,2012-08-27 11:32:29,4,[2442:2799:3068:3320]
25,10131,2,5,2012-08-27 11:34:46,1,[23794]
26,10131,2,6,2012-08-27 11:35:38,4,[4409:4861:5182:5709]
27,6070,1,1,2012-08-27 17:55:18,1,[4625]
28,6070,1,2,2012-08-27 17:55:35,3,[2515:2716:2931]
29,6070,1,3,2012-08-27 17:56:44,1,[3741]
30,6070,1,4,2012-08-27 17:56:55,1,[1342]
31,6070,1,1,2012-08-27 19:16:31,1,[30491]
32,6070,1,2,2012-08-27 19:17:01,3,[1777:2090:5546]
33,6070,1,3,2012-08-27 19:18:11,1,[3791]
34,6070,1,4,2012-08-27 19:18:45,1,[6439]
35,6442450948,1,1,2012-08-28 07:37:05,1,[4637]
36,6442450948,1,2,2012-08-28 07:37:22,4,[446:626:819:2212]
37,6442450948,1,3,2012-08-28 07:39:54,1,[6446]
38,6442450948,1,4,2012-08-28 07:40:13,1,[2626]
39,6070,2,1,2012-08-29 05:53:11,1,[4537]
40,6070,2,2,2012-08-29 05:53:27,1,[857]
41,6070,2,3,2012-08-29 06:20:31,1,[83976]
42,6070,2,4,2012-08-29 06:22:54,4,[18431:19231:29441:29859]
43,6070,2,5,2012-08-29 06:23:17,4,[4050:4328:4628:4896]
44,6070,2,6,2012-08-29 06:23:55,1,[4648]
45,6442450948,1,1,2012-08-29 09:15:49,1,[4740]
46,6442450948,1,2,2012-08-29 09:16:02,1,[1613]
47,6442450948,1,3,2012-08-29 09:18:03,1,[6848]
48,6442450948,1,4,2012-08-29 09:18:16,1,[1512]
49,6442450970,1,1,2012-08-29 10:32:10,1,[3674]
50,6442450970,1,2,2012-08-29 10:32:22,1,[2050]
51,6442450970,1,3,2012-08-29 10:33:28,1,[6152]
52,6442450970,1,4,2012-08-29 10:33:44,1,[2796]
53,6442450980,1,1,2012-08-31 19:06:00,1,[3154]
54,6442450980,1,2,2012-08-31 19:06:27,1,[4798]
55,6442450980,1,3,2012-08-31 19:07:07,1,[2214]
56,6442450980,1,4,2012-08-31 19:07:17,1,[1245]
57,9441,5,1,2012-09-03 02:28:12,0,[0]
58,9441,5,2,2012-09-03 02:30:07,0,[1]
59,9441,5,3,2012-09-03 02:31:03,0,[1]
60,kayjay,5,1,2012-09-03 06:27:43,0,[1]
61,kayjay,5,2,2012-09-03 06:28:59,0,[0]
62,kayjay,5,3,2012-09-03 06:30:14,0,[5]
63,kayjay,5,4,2012-09-03 06:32:05,0,[0]
64,kayjay,5,5,2012-09-03 06:32:50,0,[0]
65,kayjay,5,6,2012-09-03 06:34:08,0,[0]
66,kayjay,5,7,2012-09-03 06:37:20,0,[2]
67,kayjay,5,8,2012-09-03 06:38:31,0,[1]
68,kayjay,5,9,2012-09-03 06:38:54,0,[3]
69,kayjay,5,10,2012-09-03 06:41:05,0,[1]
70,Jonas,4,1,2012-09-03 07:02:24,2,[9239:9881]
71,Jonas,4,2,2012-09-03 07:02:53,2,[2919:3463]
72,Jonas,4,3,2012-09-03 07:03:15,1,[2056]
73,Jonas,4,4,2012-09-03 07:03:57,1,[7292]
74,Jonas,4,5,2012-09-03 07:05:29,1,[17078]
75,AJ,4,1,2012-09-03 07:07:39,3,[1769:1974:2210]
76,AJ,4,2,2012-09-03 07:08:11,1,[4072]
77,Jonas,4,6,2012-09-03 07:08:28,1,[30027]
78,Jonas,4,7,2012-09-03 07:08:55,3,[2075:2519:2913]
79,AJ,4,3,2012-09-03 07:08:56,4,[6176:6854:7060:7160]
80,AJ,4,4,2012-09-03 07:09:16,2,[2585:2690]
81,Jonas,4,8,2012-09-03 07:09:33,2,[960:1530]
82,Jonas,4,9,2012-09-03 07:09:49,4,[807:1274:1530:1784]
83,Jonas,4,10,2012-09-03 07:10:06,1,[753]
84,AJ,4,5,2012-09-03 07:10:49,1,[16990]
85,Kevvv,5,1,2012-09-03 07:14:27,0,[0]
86,Kevvv,5,2,2012-09-03 07:15:51,0,[1]
87,Kevvv,5,3,2012-09-03 07:17:08,0,[5]
88,Kevvv,5,4,2012-09-03 07:19:08,0,[0]
89,Kevvv,5,5,2012-09-03 07:19:30,0,[1]
90,Kevvv,5,6,2012-09-03 07:20:40,0,[0]
91,Kevvv,5,7,2012-09-03 07:23:52,0,[1]
92,Kevvv,5,8,2012-09-03 07:25:07,0,[0]
93,Kevvv,5,9,2012-09-03 07:25:25,0,[3]
94,Kevvv,5,10,2012-09-03 07:27:32,0,[0]
95,AJ2,4,1,2012-09-03 07:30:15,3,[1667:1777:2394]
96,AJ2,4,2,2012-09-03 07:30:48,1,[4613]
97,Cunt Features,5,1,2012-09-03 07:31:03,0,[1]
98,AJ2,4,3,2012-09-03 07:31:06,3,[562:825:975]
99,AJ2,4,4,2012-09-03 07:31:16,2,[250:374]
100,Cunt Features,5,2,2012-09-03 07:32:17,0,[0]
101,AJ2,4,5,2012-09-03 07:33:03,1,[20527]
102,Cunt Features,5,3,2012-09-03 07:33:36,0,[5]
103,AJ2,4,6,2012-09-03 07:34:27,1,[9110]
104,AJ2,4,7,2012-09-03 07:34:45,1,[510]
105,Cunt Features,5,4,2012-09-03 07:35:12,0,[1]
106,AJ2,4,8,2012-09-03 07:35:18,1,[362]
107,AJ2,4,9,2012-09-03 07:35:30,4,[396:501:610:738]
108,Cunt Features,5,5,2012-09-03 07:35:38,0,[0]
109,AJ2,4,10,2012-09-03 07:35:58,2,[2566:3361]
110,Cunt Features,5,6,2012-09-03 07:36:49,0,[1]
111,Cunt Features,5,7,2012-09-03 07:40:15,0,[1]
112,AJ3,5,1,2012-09-03 07:40:53,0,[0]
113,Cunt Features,5,8,2012-09-03 07:41:53,0,[1]
114,Cunt Features,5,9,2012-09-03 07:42:38,0,[0]
115,Cunt Features,5,10,2012-09-03 07:44:39,0,[0]
116,AJ3,5,2,2012-09-03 07:44:45,0,[1]
117,AJ3,5,3,2012-09-03 07:45:51,0,[5]
118,AJ3,5,4,2012-09-03 07:48:43,0,[0]
119,AJ3,5,5,2012-09-03 07:49:27,0,[1]
120,AJ3,5,6,2012-09-03 07:51:22,0,[0]
121,v,4,1,2012-09-03 07:52:33,4,[1639:2010:2262:2462]
122,kayjay,5,1,2012-09-03 07:52:55,0,[1]
123,v,4,2,2012-09-03 07:52:58,2,[2180:2550]
124,v,4,3,2012-09-03 07:53:18,4,[928:1188:1346:1621]
125,v,4,4,2012-09-03 07:53:29,1,[612]
126,kayjay,5,2,2012-09-03 07:54:10,0,[1]
127,AJ3,5,7,2012-09-03 07:54:34,0,[2]
128,v,4,5,2012-09-03 07:54:43,1,[12955]
129,AJ3,5,8,2012-09-03 07:55:45,0,[1]
130,v,4,6,2012-09-03 07:55:54,1,[7095]
131,AJ3,5,9,2012-09-03 07:56:10,0,[0]
132,v,4,7,2012-09-03 07:56:15,1,[1828]
133,v,4,8,2012-09-03 07:56:52,4,[446:682:901:1213]
134,v,4,9,2012-09-03 07:57:15,1,[3198]
135,v,4,10,2012-09-03 07:57:35,1,[1581]
136,AJ3,5,10,2012-09-03 07:58:25,0,[1]
137,kayjay,5,3,2012-09-03 07:59:55,0,[3]
138,Hoffman,4,1,2012-09-03 11:03:02,7,[1474:1928:2205:2765:3040:4397:4607]
139,Hoffman,4,2,2012-09-03 11:05:29,1,[661]
140,Hoffman,4,3,2012-09-03 11:05:44,1,[462]
141,Hoffman,4,4,2012-09-03 11:05:56,2,[684:856]
142,333,5,1,2012-09-03 11:09:23,0,[1]
143,333,5,2,2012-09-03 11:10:37,0,[0]
144,333,5,3,2012-09-03 11:12:48,0,[3]
145,333,5,4,2012-09-03 11:16:05,0,[2]
146,333,5,5,2012-09-03 11:16:28,0,[1]
147,333,5,6,2012-09-03 11:17:32,0,[1]
148,Kochan,5,1,2012-09-03 12:03:48,0,[1]
149,Kochan,5,2,2012-09-03 12:05:05,0,[1]
150,Kochan,5,3,2012-09-03 12:06:24,0,[5]
151,Chutzpag,4,1,2012-09-04 04:17:16,2,[1778:1922]
152,Chutzpag,4,2,2012-09-04 04:17:31,1,[567]
153,Chutzpag,4,3,2012-09-04 04:18:09,2,[550:1959]
154,Chutzpag,4,4,2012-09-04 04:31:58,1,[2407]
155,Chutzpag,4,5,2012-09-04 04:37:47,1,[43675]
156,SR,4,1,2012-09-04 04:49:36,3,[6738:7081:7448]
157,SR,4,2,2012-09-04 04:50:08,3,[4508:4595:4730]
158,SR,4,3,2012-09-04 04:50:56,2,[8414:8725]
159,SR,4,4,2012-09-04 04:51:36,3,[7052:7413:7688]
160,Chutzpag,4,6,2012-09-04 04:53:33,1,[20960]
161,SR,4,5,2012-09-04 04:53:35,1,[25217]
162,Chutzpag,4,7,2012-09-04 04:54:00,4,[1586:2038:2323:2636]
163,Chutzpag,4,8,2012-09-04 04:55:38,1,[454]
164,Chutzpag,4,9,2012-09-04 04:55:50,1,[1061]
165,Chutzpag,4,10,2012-09-04 04:56:19,1,[3548]
166,SR,4,6,2012-09-04 04:57:22,1,[27752]
167,SR,4,7,2012-09-04 04:58:06,1,[7509]
168,SR,4,8,2012-09-04 04:59:34,2,[13486:13690]
169,SR,4,9,2012-09-04 05:00:10,3,[6496:6698:6910]
170,SR,4,10,2012-09-04 05:00:47,1,[5811]
171,SR,5,1,2012-09-04 05:15:44,0,[1]
172,SR,5,2,2012-09-04 05:17:08,0,[1]
173,SR,5,3,2012-09-04 05:18:27,0,[5]
174,SR,5,4,2012-09-04 05:20:29,0,[2]
175,SR,5,5,2012-09-04 05:21:01,0,[0]
176,SR,5,6,2012-09-04 05:22:07,0,[1]
177,SR,5,7,2012-09-04 05:24:58,0,[2]
178,SR,5,8,2012-09-04 05:28:12,0,[0]
179,SR,5,9,2012-09-04 05:28:34,0,[1]
180,SR,5,10,2012-09-04 05:30:56,0,[2]
181,6442450970,5,1,2012-09-04 08:29:19,0,[1]
182,6442450970,5,2,2012-09-04 08:30:31,0,[1]
183,6442450970,5,3,2012-09-04 08:31:40,0,[5]
184,Bruce,2,1,2012-09-04 08:48:20,1,[804]
185,Heshie,4,1,2012-09-05 15:44:10,1,[15354]
186,Heshie,4,2,2012-09-05 15:45:20,1,[13697]
187,Heshie,4,3,2012-09-05 15:47:05,1,[20497]
188,Heshie,4,4,2012-09-05 15:48:03,1,[11539]
189,Heshie,4,5,2012-09-05 15:52:22,1,[54385]
190,Josh,1,1,2012-09-06 08:29:05,1,[9486]
191,Josh,1,2,2012-09-06 08:29:25,1,[3514]
192,Josh,1,3,2012-09-06 08:30:21,1,[4068]
193,Josh,1,4,2012-09-06 08:30:39,1,[3060]
194,geffy,5,1,2012-09-06 09:22:45,0,[1]
195,geffy,5,2,2012-09-06 09:24:01,0,[0]
196,geffy,5,3,2012-09-06 09:25:19,0,[5]
197,SR,4,1,2012-09-11 10:09:14,2,[4197:7394]
198,SR,4,2,2012-09-11 10:09:41,4,[3378:3863:4105:4307]
199,SR,4,3,2012-09-11 10:10:04,4,[2508:2768:2926:3041]
200,SR,4,4,2012-09-11 10:10:17,1,[2564]
201,SR,4,5,2012-09-11 10:25:20,1,[220283]
202,SR,4,6,2012-09-11 10:26:57,1,[14870]
203,SR,4,7,2012-09-11 10:27:35,4,[4410:5055:5338:5545]
204,SR,4,8,2012-09-11 10:28:12,1,[3381]
205,SR,4,9,2012-09-11 10:28:37,1,[5528]
206,SR,4,10,2012-09-11 10:29:00,1,[3144]
207,Bruce,4,1,2012-09-12 09:02:23,2,[4227:4543]
208,Bruce,4,2,2012-09-12 09:02:39,4,[823:1016:1190:1347]
209,Bruce,4,3,2012-09-12 09:02:54,4,[574:648:852:996]
210,Bruce,4,4,2012-09-12 09:02:59,1,[647]
211,Bruce,4,5,2012-09-12 09:04:19,1,[16559]
212,Bruce,4,6,2012-09-12 09:05:52,1,[13838]
213,Bruce,4,7,2012-09-12 09:06:53,4,[11524:11618:11783:11928]
214,Bruce,4,8,2012-09-12 09:07:21,1,[532]
215,Bruce,4,9,2012-09-12 09:07:27,2,[301:496]
216,Bruce,4,10,2012-09-12 09:07:39,1,[309]
217,Bruce,5,1,2012-09-12 09:09:45,0,[0]
218,Bruce,5,2,2012-09-12 09:11:21,0,[1]
219,Bruce,5,3,2012-09-12 09:11:47,0,[1]
220,Bruce,5,4,2012-09-12 09:13:30,0,[2]
221,Bruce,5,5,2012-09-12 09:13:59,0,[0]
222,Bruce,5,6,2012-09-12 09:16:23,0,[0]
223,Bruce,5,7,2012-09-12 09:19:21,0,[2]
224,Bruce,5,8,2012-09-12 09:20:31,0,[1]
225,Bruce,5,9,2012-09-12 09:21:15,0,[0]
226,Bruce,5,10,2012-09-12 09:23:07,0,[0]
227,geffy,2,1,2012-09-12 13:54:11,4,[46902:47500:47913:48339]
228,geffy,2,1,2012-09-13 04:40:22,4,[1814:2236:2649:3582]
229,geffy,2,2,2012-09-13 04:41:28,4,[6803:7405:13681:14373]
230,geffy,2,3,2012-09-13 05:05:18,1,[182792]
231,geffy,2,4,2012-09-13 05:06:37,4,[4047:4615:5033:5435]
232,geffy,2,5,2012-09-13 05:07:07,3,[5217:5541:6253]
233,geffy,2,6,2012-09-13 05:08:05,2,[8027:8671]
234,jefy,3,1,2012-09-13 05:31:45,1,[40563]
235,jefy,3,2,2012-09-13 05:35:09,1,[41819]
236,jefy,3,3,2012-09-13 05:39:02,2,[25670:26029]
237,jefy,3,4,2012-09-13 05:39:31,3,[2618:3170:4033]
238,jefy,3,5,2012-09-13 05:39:49,2,[2292:2885]
239,jefy,3,6,2012-09-13 05:46:38,3,[20357:20679:21342]
240,jefy,3,7,2012-09-13 05:47:00,3,[2727:3139:3839]
241,jefy,4,1,2012-09-13 05:55:04,1,[4639]
242,jefy,4,2,2012-09-13 05:55:49,4,[6977:7543:7978:8312]
243,jefy,4,3,2012-09-13 05:56:12,2,[2537:3148]
244,jefy,4,4,2012-09-13 05:56:36,4,[4086:4436:4805:5089]
245,jefy,4,5,2012-09-13 06:00:22,1,[50227]
246,jefy,4,6,2012-09-13 06:01:56,1,[13489]
247,jefy,4,7,2012-09-13 06:02:24,2,[3651:4274]
248,jefy,4,8,2012-09-13 06:02:56,1,[1231]
249,jefy,4,9,2012-09-13 06:03:14,2,[2961:3555]
250,jefy,4,10,2012-09-13 06:04:53,2,[21223:21552]
251,0000,5,1,2012-09-13 06:09:48,0,[0]
252,0000,5,2,2012-09-13 06:12:15,0,[1]
253,0000,5,3,2012-09-13 06:15:15,0,[5]
254,0000,5,4,2012-09-13 06:20:10,0,[0]
255,0000,5,5,2012-09-13 06:20:34,0,[1]
256,0000,5,6,2012-09-13 06:22:47,0,[1]
257,0000,5,7,2012-09-13 06:26:10,0,[2]
258,0000,5,8,2012-09-13 06:27:22,0,[1]
259,0000,5,9,2012-09-13 06:27:43,0,[0]
260,0000,5,10,2012-09-13 06:29:48,0,[1]
261,0000,4,1,2012-09-13 07:21:05,3,[2068:36448:36892]
262,0000,4,2,2012-09-13 07:21:26,3,[1619:1992:2404]
263,0000,4,3,2012-09-13 07:22:35,1,[14574]
264,0000,4,4,2012-09-13 07:22:48,2,[1506:2472]
265,0000,4,5,2012-09-13 07:30:33,1,[112101]
266,0000,4,6,2012-09-13 07:31:53,1,[10753]
267,0000,4,7,2012-09-13 07:32:56,1,[12901]
268,0000,4,8,2012-09-13 07:34:53,1,[22545]
269,0000,4,9,2012-09-13 07:35:04,4,[640:950:1249:1667]
270,0000,4,10,2012-09-13 07:35:24,3,[1576:1927:2276]
271,6442451013,1,1,2012-09-15 14:35:54,1,[4341]
272,6442451013,1,2,2012-09-15 14:36:23,3,[3539:4070:4470]
273,6442451013,1,3,2012-09-15 14:37:31,1,[3452]
274,6442451013,1,4,2012-09-15 14:37:53,1,[3279]
275,Bruce,4,1,2012-09-17 10:02:46,1,[12321]
276,Bruce,4,2,2012-09-17 10:03:01,1,[927]
277,Bruce,4,3,2012-09-17 10:03:14,1,[799]
278,Bruce,4,4,2012-09-17 10:03:25,1,[1660]
279,Nima,4,1,2012-09-17 11:21:41,1,[1398]
280,Nima,4,2,2012-09-17 11:21:58,4,[486:731:939:1284]
281,Nima,4,3,2012-09-17 11:22:13,4,[459:685:839:1062]
282,Nima,4,4,2012-09-17 11:22:17,1,[469]
283,Jonas,4,1,2012-09-19 10:03:13,1,[940]
284,Sandra,4,1,2012-09-19 14:56:12,1,[1540]
285,Sandra,4,2,2012-09-19 14:56:42,1,[4303]
286,Sandra,4,3,2012-09-19 14:56:56,1,[916]
287,Sandra,4,4,2012-09-19 14:57:25,1,[5635]
288,Tim,4,1,2012-09-20 10:36:02,1,[5406]
289,Tim,4,2,2012-09-20 10:36:44,1,[7029]
290,Tim,4,3,2012-09-20 10:36:58,1,[897]
291,Tim,4,4,2012-09-20 10:37:06,1,[944]
292,statgamer,4,1,2012-09-20 18:22:42,3,[1678:2032:2265]
293,statgamer,4,2,2012-09-20 18:23:03,1,[2272]
294,statgamer,4,3,2012-09-20 18:23:22,1,[2005]
295,statgamer,4,4,2012-09-20 18:23:34,1,[1834]
296,6442451061,1,1,2012-09-28 17:25:08,1,[5495]
297,6442451061,1,2,2012-09-28 17:25:35,1,[4513]
298,6442451061,1,3,2012-09-28 17:26:41,1,[2441]
299,6442451061,1,4,2012-09-28 17:26:50,1,[921]
300,Alison,4,1,2012-10-04 11:09:03,1,[2861]
301,Alison,4,2,2012-10-04 11:09:19,1,[1460]
302,Alison,4,3,2012-10-04 11:09:53,3,[4394:4656:5083]
303,Alison,4,4,2012-10-04 11:10:00,1,[851]
304,Andrew,2,1,2012-10-09 05:38:22,1,[2281]
305,Andrew,2,2,2012-10-09 05:38:41,2,[2272:2771]
306,Andrew,2,3,2012-10-09 05:44:28,1,[30585]
307,Andrew,2,4,2012-10-09 05:45:54,3,[4899:5437:7389]
308,Andrew,2,5,2012-10-09 05:47:05,4,[11229:12231:12829:13207]
309,Andrew,2,6,2012-10-09 05:47:58,1,[6406]
310,Andrew,3,1,2012-10-09 05:56:05,1,[22242]
311,Andrew,3,2,2012-10-09 05:58:06,1,[24536]
312,Andrew,3,3,2012-10-09 05:59:12,2,[8533:9127]
313,Andrew,3,4,2012-10-09 06:01:23,2,[29201:29403]
314,Andrew,3,5,2012-10-09 06:01:35,1,[1840]
315,Andrew,3,6,2012-10-09 06:04:45,1,[1242]
316,Andrew,3,7,2012-10-09 06:05:11,4,[4369:4654:4871:5127]
317,Andrew,4,1,2012-10-09 06:11:35,1,[2522]
318,Andrew,4,2,2012-10-09 06:11:56,2,[2334:2637]
319,Andrew,4,3,2012-10-09 06:12:18,3,[2407:2675:2897]
320,Andrew,4,4,2012-10-09 06:12:34,3,[2676:2898:3152]
321,Andrew,4,5,2012-10-09 06:14:18,1,[20730]
322,Andrew,4,6,2012-10-09 06:15:25,1,[7657]
323,Andrew,4,7,2012-10-09 06:16:02,4,[5785:5933:6074:6463]
324,Andrew,4,8,2012-10-09 06:16:41,1,[3360]
325,Andrew,4,9,2012-10-09 06:16:56,3,[2180:2328:2628]
326,Andrew,4,10,2012-10-09 06:17:30,4,[4623:4830:5712:5887]
327,Andrew,5,1,2012-10-09 06:19:38,0,[1]
328,Andrew,5,2,2012-10-09 06:20:53,0,[1]
329,Andrew,5,3,2012-10-09 06:22:04,0,[5]
330,Andrew,5,4,2012-10-09 06:23:44,0,[1]
331,Andrew,5,5,2012-10-09 06:24:09,0,[0]
332,Andrew,5,6,2012-10-09 06:25:24,0,[1]
333,Andrew,5,7,2012-10-09 06:28:28,0,[2]
334,Andrew,5,8,2012-10-09 06:29:39,0,[1]
335,Andrew,5,9,2012-10-09 06:30:04,0,[3]
336,Andrew,5,10,2012-10-09 06:32:09,0,[2]
337,RJKfxTzdw6,1,1,2012-10-09 12:23:07,1,[3436]
338,RJKfxTzdw6,1,2,2012-10-09 12:23:33,3,[2712:3565:4046]
339,RJKfxTzdw6,1,3,2012-10-09 12:24:30,1,[3704]
340,RJKfxTzdw6,1,4,2012-10-09 12:24:43,1,[1787]
341,6442451108,1,1,2012-10-12 12:00:04,1,[1645]
342,6442451108,1,2,2012-10-12 12:00:21,1,[1697]
343,6442451108,1,3,2012-10-12 12:01:20,1,[3165]
344,6442451108,1,4,2012-10-12 12:01:32,1,[1212]
345,Graham,5,1,2012-10-12 16:35:09,0,[1]
346,Graham,5,2,2012-10-12 16:36:41,0,[1]
347,Graham,5,3,2012-10-12 16:37:50,0,[5]
348,10015,1,1,2012-10-24 06:25:37,1,[6900]
349,10015,1,2,2012-10-24 06:26:10,2,[4206:4706]
350,10015,1,3,2012-10-24 06:27:16,1,[2892]
351,10015,1,4,2012-10-24 06:27:45,1,[3245]
352,6442451173,1,1,2012-10-24 10:13:49,1,[1659]
353,6442451173,1,2,2012-10-24 10:13:55,1,[288]
354,6442451173,1,3,2012-10-24 10:14:41,1,[2521]
355,6442451173,1,4,2012-10-24 10:14:51,1,[979]
356,6442451183,1,1,2012-10-25 11:31:52,1,[8832]
357,6442451183,1,2,2012-10-25 11:32:02,3,[922:1078:1209]
358,6442451183,1,2,2012-10-25 11:32:03,4,[922:1078:1209922:1078:1209:1209]
359,6442451183,1,3,2012-10-25 11:33:29,1,[5950]
360,6442451183,1,4,2012-10-25 11:33:47,1,[3032]
361,6442451256,1,1,2012-10-30 11:57:27,1,[5210]
362,6442451256,1,2,2012-10-30 11:57:53,1,[3882]
363,6442451256,1,3,2012-10-30 11:58:48,1,[4316]
364,6442451256,1,4,2012-10-30 11:59:02,1,[1635]
365,10016,1,1,2012-11-07 09:27:27,1,[3933]
366,10016,1,2,2012-11-07 09:27:45,2,[2582:2868]
367,10016,1,3,2012-11-07 09:28:30,1,[2752]
368,10016,1,4,2012-11-07 09:28:48,1,[2791]
369,10018,1,1,2012-11-07 13:21:36,1,[2582]
370,10018,1,2,2012-11-07 13:22:13,2,[4466:4823]
371,10018,1,3,2012-11-07 13:23:07,1,[2191]
372,10018,1,4,2012-11-07 13:23:28,1,[2295]
373,josh,4,1,2012-11-08 08:29:24,3,[2188:2774:3004]
374,josh,4,2,2012-11-08 08:29:40,4,[861:945:1149:1366]
375,josh,4,3,2012-11-08 08:29:58,4,[848:1101:1293:1467]
376,josh,4,4,2012-11-08 08:30:10,2,[1832:2047]
377,6442451340,1,1,2012-11-08 13:21:32,1,[8517]
378,6442451340,1,2,2012-11-08 13:22:13,3,[8123:9073:9296]
379,6442451340,1,3,2012-11-08 13:23:04,1,[6200]
380,6442451340,1,4,2012-11-08 13:23:20,1,[2607]
381,123,1,1,2012-11-14 08:25:30,1,[7734]
382,123,1,2,2012-11-14 08:25:46,1,[2818]
383,123,1,3,2012-11-14 08:26:58,1,[7813]
384,123,1,4,2012-11-14 08:27:26,1,[5432]
385,444444,4,1,2012-11-15 04:16:33,1,[9819]
386,444444,4,2,2012-11-15 04:17:12,2,[6362:6665]
387,444444,4,3,2012-11-15 04:17:48,3,[5490:5667:5923]
388,444444,4,4,2012-11-15 04:24:49,3,[69012:69694:69936]
389,444444,4,5,2012-11-15 04:26:50,1,[24196]
390,444444,4,6,2012-11-15 04:28:34,1,[15285]
391,444444,4,7,2012-11-15 04:29:10,3,[5367:5674:5854]
392,444444,4,8,2012-11-15 04:30:07,1,[7214]
393,444444,4,9,2012-11-15 04:30:33,1,[5413]
394,444444,4,10,2012-11-15 04:31:14,2,[6592:6866]
395,6442451481,1,1,2012-11-29 03:44:13,1,[9987]
396,6442451481,1,2,2012-11-29 03:46:03,2,[25118:25386]
397,6442451481,1,3,2012-11-29 03:48:05,1,[7847]
398,6442451481,1,4,2012-11-29 03:48:24,1,[3447]
399,Nima,4,1,2012-12-07 06:07:14,1,[743]
400,Nima,4,2,2012-12-07 06:07:32,2,[1241:1740]
401,Nima,4,3,2012-12-07 06:07:51,1,[1934]
402,Nima,4,4,2012-12-07 06:08:00,1,[1154]
403,6442451392,1,1,2013-01-07 03:52:32,1,[6974]
404,6442451392,1,2,2013-01-07 03:52:50,1,[2623]
405,n,2,1,2013-01-10 04:34:53,1,[1464]
406,n,2,2,2013-01-10 04:35:10,2,[1786:2216]
407,8589934596,1,1,2013-01-22 08:16:53,1,[2864]
408,8589934596,1,2,2013-01-22 08:16:59,1,[330]
409,8589934596,1,2,2013-01-22 08:17:00,2,[330330:330]
410,8589934596,1,2,2013-01-22 08:17:00,3,[330330:330330:330:330]
411,8589934596,1,2,2013-01-22 08:17:01,4,[330330:330330:330:330330:330:330:330]
412,8589934596,1,3,2013-01-22 08:18:00,1,[3296]
413,%%USERID%%,1,1,2013-01-22 10:47:52,1,[2463]
414,%%USERID%%,1,2,2013-01-22 10:47:57,1,[278]
415,%%USERID%%,1,3,2013-01-22 10:48:48,1,[3449]
416,%%USERID%%,1,4,2013-01-22 10:49:18,1,[5856]
417,%%USERID%%,1,1,2013-01-23 05:31:31,1,[2899]
418,%%USERID%%,1,2,2013-01-23 05:31:37,1,[317]
419,%%USERID%%,1,3,2013-01-23 05:32:42,1,[4010]
420,%%USERID%%,1,4,2013-01-23 05:32:53,1,[1581]
421,%%USERID%%,1,1,2013-01-29 08:16:40,1,[2119]
422,%%USERID%%,1,2,2013-01-29 08:16:46,1,[392]
423,%%USERID%%,1,2,2013-01-29 08:16:46,2,[392392:392]
424,%%USERID%%,1,2,2013-01-29 08:16:46,3,[392392:392392:392:392]
425,%%USERID%%,1,2,2013-01-29 08:16:47,4,[392392:392392:392:392392:392:392:392]
426,%%USERID%%,1,3,2013-01-29 08:17:50,1,[4788]
427,%%USERID%%,1,4,2013-01-29 08:18:03,1,[1899]
428,%%USERID%%,1,1,2013-01-29 15:43:53,1,[6834]
429,%%USERID%%,1,2,2013-01-29 15:44:22,3,[3220:3675:4325]
430,%%USERID%%,1,2,2013-01-29 15:44:23,4,[3220:3675:43253220:3675:4325:4325]
431,%%USERID%%,1,3,2013-01-29 15:45:24,1,[4721]
432,%%USERID%%,1,4,2013-01-29 15:45:42,1,[2360]
433,%%USERID%%,1,1,2013-01-30 12:23:22,1,[3806]
434,%%USERID%%,1,2,2013-01-30 12:23:39,3,[2089:2407:2686]
435,%%USERID%%,1,3,2013-01-30 12:24:42,1,[5679]
436,%%USERID%%,1,4,2013-01-30 12:25:03,1,[3789]
437,%%USERID%%,1,1,2013-01-30 13:11:06,1,[4060]
438,%%USERID%%,1,2,2013-01-30 13:11:22,1,[2473]
439,%%USERID%%,1,3,2013-01-30 13:12:43,1,[4476]
440,%%USERID%%,1,4,2013-01-30 13:13:00,1,[2173]
441,%%USERID%%,1,1,2013-01-31 12:59:04,1,[3639]
442,%%USERID%%,1,2,2013-01-31 12:59:18,3,[1353:1938:2099]
443,%%USERID%%,1,3,2013-01-31 13:00:15,1,[4736]
444,%%USERID%%,1,4,2013-01-31 13:00:31,1,[2364]
445,%%USERID%%,1,1,2013-01-31 13:48:40,1,[4344]
446,%%USERID%%,1,2,2013-01-31 13:49:20,3,[5078:6188:6643]
447,%%USERID%%,1,3,2013-01-31 13:50:17,1,[3604]
448,%%USERID%%,1,4,2013-01-31 13:50:29,1,[1418]
449,%%USERID%%,1,1,2013-01-31 15:53:07,1,[13050]
450,%%USERID%%,1,2,2013-01-31 15:53:22,3,[1919:2388:2629]
451,%%USERID%%,1,2,2013-01-31 15:53:24,4,[1919:2388:26291919:2388:2629:2629]
452,%%USERID%%,1,3,2013-01-31 15:54:34,1,[7683]
453,%%USERID%%,1,4,2013-01-31 15:54:50,1,[2935]
454,%%USERID%%,1,1,2013-02-01 08:06:33,1,[6729]
455,%%USERID%%,1,2,2013-02-01 08:07:00,4,[3265:4306:4890:5235]
456,%%USERID%%,1,3,2013-02-01 08:08:01,1,[4715]
457,%%USERID%%,1,4,2013-02-01 08:08:27,1,[4479]
458,%%USERID%%,1,1,2013-02-01 13:04:56,1,[3615]
459,%%USERID%%,1,2,2013-02-01 13:05:33,3,[5610:6228:6404]
460,%%USERID%%,1,3,2013-02-01 13:06:33,1,[5627]
461,%%USERID%%,1,4,2013-02-01 13:06:51,1,[2692]
462,%%USERID%%,1,1,2013-02-02 04:35:44,1,[6492]
463,%%USERID%%,1,2,2013-02-02 04:36:01,1,[3259]
464,%%USERID%%,1,3,2013-02-02 04:37:32,1,[3380]
465,%%USERID%%,1,4,2013-02-02 04:37:50,1,[3384]
466,%%USERID%%,1,1,2013-02-03 10:40:25,1,[6238]
467,%%USERID%%,1,2,2013-02-03 10:41:03,1,[7814]
468,%%USERID%%,1,2,2013-02-03 10:41:04,2,[78147814:7814]
469,%%USERID%%,1,3,2013-02-03 10:42:09,1,[3858]
470,%%USERID%%,1,4,2013-02-03 10:42:18,1,[1512]
471,%%USERID%%,1,1,2013-02-03 12:05:40,1,[2007]
472,%%USERID%%,1,2,2013-02-03 12:06:01,3,[1778:1910:2017]
473,%%USERID%%,1,3,2013-02-03 12:07:07,1,[3715]
474,%%USERID%%,1,4,2013-02-03 12:07:25,1,[1732]
475,%%USERID%%,1,1,2013-02-05 16:15:12,1,[3624]
476,%%USERID%%,1,2,2013-02-05 16:15:35,1,[3748]
477,%%USERID%%,1,3,2013-02-05 16:16:33,1,[3754]
478,%%USERID%%,1,4,2013-02-05 16:16:50,1,[2550]
479,%%USERID%%,1,1,2013-02-06 09:58:31,1,[6518]
480,%%USERID%%,1,2,2013-02-06 09:58:55,2,[3478:3979]
481,%%USERID%%,1,3,2013-02-06 09:59:53,1,[4058]
482,%%USERID%%,1,4,2013-02-06 10:00:16,1,[3878]
483,%%USERID%%,1,1,2013-02-06 11:34:59,1,[3880]
484,%%USERID%%,1,2,2013-02-06 11:35:05,1,[573]
485,%%USERID%%,1,3,2013-02-06 11:36:17,1,[5066]
486,%%USERID%%,1,4,2013-02-06 11:42:59,1,[2112]
487,%%USERID%%,1,1,2013-02-06 14:29:56,1,[7285]
488,%%USERID%%,1,2,2013-02-06 14:30:15,4,[1961:2559:2845:3096]
489,%%USERID%%,1,3,2013-02-06 14:31:18,1,[5217]
490,%%USERID%%,1,4,2013-02-06 14:31:36,1,[2951]
491,%%USERID%%,1,1,2013-02-07 11:28:39,1,[4629]
492,%%USERID%%,1,2,2013-02-07 11:28:45,1,[436]
493,%%USERID%%,1,3,2013-02-07 11:29:47,1,[2648]
494,%%USERID%%,1,4,2013-02-07 11:30:02,1,[1830]
495,%%USERID%%,1,1,2013-02-07 14:42:07,1,[3184]
496,%%USERID%%,1,2,2013-02-07 14:43:53,19,[312:618:1976:2544:3428:3826:5947:6511:7672:7839:7901:9289:10154:11638:13854:15785:16147:16427:17399]
497,%%USERID%%,1,3,2013-02-07 14:44:45,1,[2889]
498,%%USERID%%,1,4,2013-02-07 14:45:10,1,[3638]
499,000,5,1,2013-02-08 11:46:07,0,[0]
500,000,5,2,2013-02-08 11:57:13,0,[1]
501,000,5,3,2013-02-08 11:58:26,0,[5]
502,000,5,4,2013-02-08 12:00:40,0,[1]
503,000,5,5,2013-02-08 12:01:22,0,[0]
504,000,5,6,2013-02-08 12:02:28,0,[1]
505,000,5,7,2013-02-08 12:05:01,0,[2]
506,000,5,8,2013-02-08 12:06:12,0,[1]
507,000,5,9,2013-02-08 12:06:40,0,[3]
508,000,5,10,2013-02-08 12:09:11,0,[2]
509,%%USERID%%,1,1,2013-02-09 09:40:43,1,[3205]
510,%%USERID%%,1,2,2013-02-09 09:41:10,3,[3737:3921:4096]
511,%%USERID%%,1,3,2013-02-09 09:42:05,1,[2761]
512,%%USERID%%,1,4,2013-02-09 09:42:22,1,[2024]
513,%%USERID%%,2,1,2013-02-11 11:02:41,1,[2916]
514,%%USERID%%,2,2,2013-02-11 11:02:58,2,[1409:1723]
515,%%USERID%%,2,3,2013-02-11 11:15:41,1,[13700]
516,%%USERID%%,2,4,2013-02-11 11:16:48,3,[1617:1930:2166]
517,%%USERID%%,2,5,2013-02-11 11:16:59,1,[1462]
518,%%USERID%%,2,6,2013-02-11 11:17:29,1,[1401]
519,%%USERID%%,1,1,2013-02-11 11:24:48,1,[5317]
520,%%USERID%%,1,2,2013-02-11 11:25:05,2,[2751:2983]
521,%%USERID%%,1,3,2013-02-11 11:25:57,1,[4586]
522,%%USERID%%,1,4,2013-02-11 11:26:20,1,[4259]
523,%%USERID%%,3,1,2013-02-14 12:58:36,1,[27970]
524,%%USERID%%,3,2,2013-02-14 13:01:17,1,[26475]
525,%%USERID%%,3,3,2013-02-14 13:01:30,2,[1438:1637]
526,%%USERID%%,3,4,2013-02-14 13:01:52,3,[1210:1476:1781]
527,%%USERID%%,3,5,2013-02-14 13:02:10,5,[1578:1628:1770:2074:2285]
528,%%USERID%%,3,6,2013-02-14 13:06:53,2,[1375:1628]
529,%%USERID%%,3,7,2013-02-14 13:07:06,2,[1194:1445]
530,%%USERID%%,1,1,2013-02-16 12:07:30,1,[3105]
531,%%USERID%%,1,2,2013-02-16 12:07:57,2,[4786:5489]
532,%%USERID%%,1,3,2013-02-16 12:08:51,1,[5140]
533,%%USERID%%,1,4,2013-02-16 12:09:04,1,[2238]
534,%%USERID%%,1,1,2013-02-17 09:23:37,1,[4751]
535,%%USERID%%,1,2,2013-02-17 09:23:55,1,[3338]
536,%%USERID%%,1,3,2013-02-17 09:25:00,1,[4281]
537,%%USERID%%,1,4,2013-02-17 09:25:15,1,[2677]
538,%%USERID%%,1,1,2013-02-19 08:11:18,1,[4470]
539,%%USERID%%,1,2,2013-02-19 08:11:45,3,[2835:3694:4599]
540,%%USERID%%,1,3,2013-02-19 08:12:38,1,[2956]
541,%%USERID%%,1,4,2013-02-19 08:12:57,1,[3022]
542,%%USERID%%,1,1,2013-02-19 11:43:44,1,[7766]
543,%%USERID%%,1,2,2013-02-19 11:44:02,3,[2668:3020:3130]
544,%%USERID%%,1,3,2013-02-19 11:44:54,1,[3370]
545,%%USERID%%,1,4,2013-02-19 11:45:11,1,[2674]
546,10198,1,1,2013-02-21 05:11:44,1,[12278]
547,10198,1,2,2013-02-21 05:12:35,1,[8507]
548,10198,1,3,2013-02-21 05:13:57,1,[7740]
549,10198,1,4,2013-02-21 05:14:15,1,[3044]
550,6442452133,1,1,2013-02-22 14:56:59,1,[9744]
551,6442452133,1,2,2013-02-22 14:57:18,3,[2386:2613:2820]
552,6442452133,1,3,2013-02-22 14:58:32,1,[6712]
553,6442452133,1,4,2013-02-22 14:58:51,1,[2855]
669,0,1,3,2013-03-26 05:22:04,1,[9380]
668,0,1,2,2013-03-26 05:20:29,2,[3012:9505]
667,0,1,1,2013-03-26 05:19:41,1,[10272]
666,0,1,4,2013-03-23 17:31:45,1,[1271]
665,0,1,3,2013-03-23 17:31:35,1,[3890]
664,0,1,2,2013-03-23 17:30:47,1,[9013]
663,0,1,1,2013-03-23 17:30:06,1,[4403]
662,null,1,4,2013-03-22 12:01:48,1,[2261]
661,null,1,3,2013-03-22 12:01:35,1,[3872]
660,null,1,2,2013-03-22 12:00:48,1,[1663]
659,null,1,1,2013-03-22 12:00:36,1,[5387]
658,6442452424,1,4,2013-03-21 01:30:46,1,[2209]
570,6442451803,1,1,2013-02-23 13:26:28,1,[5376]
571,6442451803,1,2,2013-02-23 13:26:46,4,[1731:2123:2360:2613]
572,6442451803,1,3,2013-02-23 13:27:38,1,[4029]
573,6442451803,1,4,2013-02-23 13:27:52,1,[1905]
574,6442452102,1,1,2013-02-24 04:40:53,1,[11286]
575,6442452102,1,2,2013-02-24 04:41:40,4,[6974:8698:9323:10231]
576,6442452102,1,3,2013-02-24 04:43:00,1,[8375]
577,6442452102,1,4,2013-02-24 04:43:26,1,[4474]
578,6442452145,2,1,2013-02-24 10:26:34,1,[726]
579,6442452145,2,2,2013-02-24 10:27:10,2,[1821:1997]
580,6442452145,2,3,2013-02-24 10:33:00,1,[8206]
581,6442452145,2,4,2013-02-24 10:34:13,1,[1202]
582,6442452145,2,5,2013-02-24 10:35:11,2,[2362:3865]
583,6442452145,2,6,2013-02-24 10:35:58,1,[1783]
657,6442452424,1,3,2013-03-21 01:30:33,1,[9646]
656,6442452424,1,2,2013-03-21 01:28:42,1,[3392]
655,6442452424,1,1,2013-03-21 01:28:25,1,[6269]
654,10200,1,2,2013-03-20 05:37:56,3,[1046:1575:1758]
653,10200,1,1,2013-03-20 05:37:45,1,[5354]
652,0,1,4,2013-03-19 10:58:48,1,[1837]
651,0,1,3,2013-03-19 10:58:35,1,[4045]
596,6442452102,3,1,2013-03-02 07:41:33,1,[32368]
597,6442452102,3,2,2013-03-02 07:44:54,1,[41644]
598,6442452102,3,3,2013-03-02 07:45:45,1,[10735]
599,6442452102,3,4,2013-03-02 07:46:24,1,[5985]
600,6442452102,3,5,2013-03-02 07:46:45,1,[3465]
601,6442452102,3,6,2013-03-02 07:50:23,1,[2825]
602,6442452102,3,7,2013-03-02 07:51:40,3,[12856:15018:15808]
650,0,1,2,2013-03-19 10:57:34,3,[1611:31021611:3102:3102]
649,0,1,2,2013-03-19 10:57:33,2,[1611:3102]
648,0,1,1,2013-03-19 10:57:13,1,[5059]
607,6442451055,1,1,2013-03-10 09:20:41,1,[5948]
608,6442451055,1,2,2013-03-10 09:20:59,4,[1642:2464:2701:2816]
609,6442451055,1,2,2013-03-10 09:21:00,5,[1642:2464:2701:28161642:2464:2701:2816:2816]
610,6442451055,1,2,2013-03-10 09:21:01,6,[1642:2464:2701:28161642:2464:2701:2816:28161642:2464:2701:2816:2816:2816]
611,6442451055,1,2,2013-03-10 09:21:01,7,[1642:2464:2701:28161642:2464:2701:2816:28161642:2464:2701:2816:2816:28161642:2464:2701:2816:2816:2816:2816]
612,6442451055,1,3,2013-03-10 09:22:02,1,[5499]
613,6442451055,1,4,2013-03-10 09:22:15,1,[1809]
647,0,1,4,2013-03-19 08:21:13,1,[2923]
646,0,1,3,2013-03-19 08:20:57,1,[4694]
645,0,1,2,2013-03-19 08:19:47,2,[8523:9467]
644,0,1,1,2013-03-19 08:19:05,1,[8630]
643,6442452352,1,4,2013-03-18 10:58:00,1,[2174]
642,6442452352,1,3,2013-03-18 10:57:46,1,[3770]
641,6442452352,1,2,2013-03-18 10:56:43,2,[5333:5759]
640,6442452352,1,1,2013-03-18 10:56:13,1,[4188]
639,6442452102,1,1,2013-03-18 04:56:32,1,[10789]
638,6442452354,1,4,2013-03-14 11:59:45,1,[2806]
637,6442452354,1,3,2013-03-14 11:59:29,1,[5286]
636,6442452354,1,2,2013-03-14 11:58:34,3,[3340:3708:3986]
635,6442452354,1,1,2013-03-14 11:58:12,1,[11288]
670,0,1,4,2013-03-26 05:22:32,1,[5393]
671,0,1,1,2013-03-26 11:38:00,1,[7061]
672,0,1,2,2013-03-26 11:38:56,2,[10981:12469]
673,0,1,3,2013-03-26 11:40:05,1,[7485]
674,0,1,4,2013-03-26 11:40:26,1,[4000]
675,0,1,1,2013-03-26 17:42:59,1,[3651]
676,0,1,2,2013-03-26 17:43:34,6,[3948:5049:5870:5870:6035:6233]
677,0,1,1,2013-03-30 15:42:15,1,[11157]
678,0,1,2,2013-03-30 15:42:36,4,[1799:2541:2897:3099]
679,0,1,3,2013-03-30 15:44:06,1,[6851]
680,0,1,4,2013-03-30 15:44:25,1,[2915]
681,0,1,1,2013-04-02 13:37:30,1,[6250]
682,0,1,2,2013-04-02 13:37:40,1,[1345]
683,0,1,3,2013-04-02 13:38:33,1,[4177]
684,0,1,4,2013-04-02 13:38:48,1,[2409]
685,0,1,1,2013-04-03 04:20:31,1,[9291]
686,0,1,2,2013-04-03 04:20:53,1,[3555]
687,0,1,3,2013-04-03 04:22:29,1,[5361]
688,0,1,4,2013-04-03 04:22:45,1,[2469]
689,6442452601,1,1,2013-04-04 11:27:35,1,[3502]
690,6442452601,1,2,2013-04-04 11:33:31,1,[81378]
691,6442452601,1,3,2013-04-04 11:37:16,1,[4690]
692,6442452601,1,4,2013-04-04 11:37:30,1,[2239]
693,6442452767,1,1,2013-04-07 06:37:09,1,[5043]
694,6442452767,1,2,2013-04-07 06:37:44,2,[6912:7096]
695,6442452767,1,2,2013-04-07 06:37:45,3,[6912:70966912:7096:7096]
696,6442452767,1,2,2013-04-07 06:37:46,4,[6912:70966912:7096:70966912:7096:7096:7096]
697,6442452767,1,3,2013-04-07 06:38:30,1,[3288]
698,6442452767,1,4,2013-04-07 06:38:44,1,[2327]
699,6442452771,1,1,2013-04-07 12:15:46,1,[4308]
700,6442452771,1,2,2013-04-07 12:16:14,6,[2805:3892:4180:4265:4312:4374]
701,6442452771,1,2,2013-04-07 12:16:15,7,[2805:3892:4180:4265:4312:43742805:3892:4180:4265:4312:4374:4374]
702,6442452771,1,3,2013-04-07 12:17:13,1,[3505]
703,6442452771,1,4,2013-04-07 12:17:29,1,[2005]
704,diane,4,1,2013-04-08 05:44:08,1,[5186]
705,diane,4,2,2013-04-08 05:44:23,1,[1068]
706,diane,4,3,2013-04-08 05:44:41,1,[1782]
707,diane,4,4,2013-04-08 05:44:55,3,[953:1792:2200]
708,diane,4,5,2013-04-08 05:48:32,1,[45437]
709,diane,4,6,2013-04-08 05:50:07,1,[13161]
710,diane,4,7,2013-04-08 05:50:56,1,[8526]
711,diane,4,8,2013-04-08 05:51:53,3,[4038:5723:6546]
712,diane,4,9,2013-04-08 05:52:21,1,[5507]
713,diane,4,10,2013-04-08 05:53:35,1,[14007]
714,0,2,1,2013-04-10 14:56:30,1,[1342]
715,0,2,2,2013-04-10 14:56:47,2,[1343:1348]
716,0,2,3,2013-04-10 15:01:38,1,[10290]
717,0,2,4,2013-04-10 15:02:44,5,[1132:1135:1136:1228:1313]
718,0,2,5,2013-04-10 15:03:04,4,[2170:2200:2477:2548]
719,0,2,6,2013-04-10 15:03:46,1,[3539]
720,6442452771,2,1,2013-04-11 11:57:23,1,[1315]
721,6442452771,2,2,2013-04-11 11:57:40,1,[1909]
722,6442452771,2,3,2013-04-11 12:02:02,1,[10088]
723,6442452771,2,4,2013-04-11 12:03:06,4,[958:1201:1391:1600]
724,6442452771,2,5,2013-04-11 12:03:17,4,[745:925:1111:1370]
725,6442452771,2,6,2013-04-11 12:03:56,1,[2687]
726,0,1,1,2013-04-12 11:34:04,1,[3913]
727,0,1,2,2013-04-12 11:34:22,1,[3287]
728,0,1,3,2013-04-12 11:35:08,1,[4429]
729,0,1,4,2013-04-12 11:35:25,1,[2816]
730,alexinnes,1,1,2013-04-15 12:05:36,1,[9035]
731,alexinnes,1,2,2013-04-15 12:05:59,3,[3683:4041:4196]
732,alexinnes,1,3,2013-04-15 12:07:05,1,[5455]
733,alexinnes,1,4,2013-04-15 12:07:18,1,[1923]
734,alexinnes,2,1,2013-04-15 12:13:20,1,[1209]
735,alexinnes,2,2,2013-04-15 12:13:38,2,[2118:2357]
736,alexinnes,2,3,2013-04-15 12:17:52,1,[9584]
737,alexinnes,2,4,2013-04-15 12:18:58,2,[1826:2282]
738,alexinnes,2,5,2013-04-15 12:19:09,1,[1717]
739,alexinnes,2,6,2013-04-15 12:19:57,3,[5682:5815:5928]
740,0,1,1,2013-04-15 12:36:58,1,[5093]
741,0,1,2,2013-04-15 12:37:32,1,[6927]
742,0,1,3,2013-04-15 12:38:50,1,[5107]
743,0,1,4,2013-04-15 12:39:03,1,[2062]
744,6442452807,1,1,2013-04-15 13:12:39,1,[5311]
745,6442452807,1,2,2013-04-15 13:13:02,4,[2563:3216:3320:3420]
746,6442452807,1,3,2013-04-15 13:13:41,1,[2669]
747,6442452807,1,4,2013-04-15 13:13:52,1,[1221]
748,0,1,1,2013-04-17 12:23:27,1,[4631]
749,0,1,2,2013-04-17 12:24:17,1,[7189]
750,0,1,3,2013-04-17 12:24:58,1,[2279]
751,0,1,4,2013-04-17 12:25:10,1,[1206]
752,6442452814,1,1,2013-04-18 14:55:51,1,[4542]
753,6442452814,1,2,2013-04-18 14:56:53,1,[12585]
754,6442452814,1,2,2013-04-18 14:56:55,2,[1258512585:12585]
755,6442452814,1,2,2013-04-18 14:56:55,3,[1258512585:1258512585:12585:12585]
756,6442452814,1,3,2013-04-18 14:57:52,1,[4781]
757,6442452814,1,4,2013-04-18 14:58:07,1,[1896]
758,0,2,1,2013-04-19 12:41:14,1,[1893]
759,0,2,2,2013-04-19 12:41:54,2,[3215:3999]
760,0,2,3,2013-04-19 12:47:40,1,[18724]
761,0,2,4,2013-04-19 12:48:50,1,[1727]
762,0,2,5,2013-04-19 12:49:24,1,[3728]
763,0,2,6,2013-04-19 12:50:12,1,[3623]
764,0,1,1,2013-04-22 15:03:31,1,[5854]
765,0,1,2,2013-04-22 15:03:40,1,[1029]
766,0,1,2,2013-04-22 15:03:42,2,[10291029:1029]
767,0,1,3,2013-04-22 15:04:24,1,[2429]
768,0,1,4,2013-04-22 15:04:37,1,[1389]
769,0,1,1,2013-04-23 13:57:59,1,[4529]
770,0,1,2,2013-04-23 13:58:22,4,[2764:2966:3112:3261]
771,0,1,3,2013-04-23 13:59:32,1,[3362]
772,0,1,4,2013-04-23 13:59:54,1,[2826]
773,6442452611,3,1,2013-04-24 14:56:56,1,[21915]
774,6442452611,3,2,2013-04-24 14:59:11,1,[18474]
775,6442452611,3,3,2013-04-24 14:59:44,1,[4073]
776,6442452611,3,4,2013-04-24 15:00:23,1,[3563]
777,6442452611,3,5,2013-04-24 15:00:44,1,[2240]
778,6442452611,3,6,2013-04-24 15:07:18,1,[5106]
779,6442452611,3,7,2013-04-24 15:08:12,4,[5792:6066:6312:6799]
780,0,2,1,2013-04-25 14:09:36,1,[978]
781,0,2,2,2013-04-25 14:10:31,3,[8181:8479:8632]
782,0,2,3,2013-04-25 14:15:30,1,[12455]
783,0,2,4,2013-04-25 14:16:44,2,[2688:2913]
784,0,2,5,2013-04-25 14:17:04,1,[2920]
785,0,2,6,2013-04-25 14:17:40,1,[2111]
786,0,3,1,2013-04-28 17:15:31,1,[17043]
787,0,3,2,2013-04-28 17:17:19,1,[13254]
788,0,3,3,2013-04-28 17:17:39,2,[2077:2292]
789,0,3,4,2013-04-28 17:18:07,1,[2637]
790,0,3,5,2013-04-28 17:18:17,1,[732]
791,0,3,6,2013-04-28 17:22:56,1,[846]
792,0,3,7,2013-04-28 17:23:20,3,[2201:2415:2853]
793,0,1,1,2013-04-30 15:35:18,1,[6968]
794,0,1,2,2013-04-30 15:35:55,1,[7619]
795,0,1,3,2013-04-30 15:37:14,1,[7292]
796,0,1,4,2013-04-30 15:37:35,1,[3821]
797,0,1,1,2013-05-01 09:31:42,1,[9911]
798,0,1,2,2013-05-01 09:32:50,1,[11063]
799,0,1,3,2013-05-01 09:33:45,1,[3375]
800,0,1,4,2013-05-01 09:34:09,1,[3281]
801,10015,5,1,2013-05-01 10:12:54,0,[1]
802,10015,5,2,2013-05-01 10:14:13,0,[1]
803,0,1,1,2013-05-02 07:36:18,1,[4511]
804,0,1,2,2013-05-02 07:36:45,2,[4412:4630]
805,0,1,3,2013-05-02 07:37:46,1,[5536]
806,0,1,4,2013-05-02 07:38:03,1,[3294]
807,0,1,1,2013-05-02 07:40:18,1,[5650]
808,0,1,2,2013-05-02 07:40:34,1,[2343]
809,0,1,3,2013-05-02 07:41:24,1,[3298]
810,0,1,4,2013-05-02 07:41:36,1,[1544]
811,0,1,1,2013-05-02 14:02:50,1,[8856]
812,0,1,2,2013-05-02 14:03:15,4,[2946:3657:3911:4129]
813,0,1,2,2013-05-02 14:03:17,6,[2946:3657:3911:41292946:3657:3911:4129:4129:4129]
814,0,1,3,2013-05-02 14:04:17,1,[3106]
815,0,1,4,2013-05-02 14:04:28,1,[1329]
816,0,1,1,2013-05-03 14:00:12,1,[3723]
817,0,1,2,2013-05-03 14:00:30,1,[2834]
818,0,1,3,2013-05-03 14:01:17,1,[3849]
819,0,1,4,2013-05-03 14:01:35,1,[2789]
820,0,1,1,2013-05-06 13:11:16,1,[4032]
821,0,1,2,2013-05-06 13:11:38,4,[2889:3066:3188:3330]
822,0,1,2,2013-05-06 13:11:39,5,[2889:3066:3188:33302889:3066:3188:3330:3330]
823,0,1,2,2013-05-06 13:11:40,6,[2889:3066:3188:33302889:3066:3188:3330:33302889:3066:3188:3330:3330:3330]
824,0,1,3,2013-05-06 13:12:43,1,[4775]
825,0,1,4,2013-05-06 13:13:00,1,[2415]
826,0,1,1,2013-05-06 16:27:44,1,[3588]
827,0,1,2,2013-05-06 16:27:52,1,[770]
828,0,1,3,2013-05-06 16:28:36,1,[3778]
829,0,1,4,2013-05-06 16:28:47,1,[1738]
830,6442452963,1,1,2013-05-07 14:32:45,1,[6011]
831,6442452963,1,2,2013-05-07 14:33:19,2,[4915:5069]
832,6442452963,1,3,2013-05-07 14:35:17,1,[2470]
833,6442452963,1,4,2013-05-07 14:35:28,1,[1251]
834,0,2,1,2013-05-08 16:39:15,1,[1502]
835,0,2,2,2013-05-08 16:41:14,1,[21793]
836,0,2,3,2013-05-08 16:51:56,1,[80169]
837,0,2,4,2013-05-08 16:54:14,2,[10783:15303]
838,0,2,5,2013-05-08 16:56:01,2,[16649:19813]
839,0,2,6,2013-05-08 16:56:37,1,[2762]
840,6442452876,1,1,2013-05-10 07:35:07,1,[3066]
841,6442452876,1,2,2013-05-10 07:35:21,2,[1326:1503]
842,0,1,1,2013-05-10 07:36:04,1,[5869]
843,6442452876,1,3,2013-05-10 07:36:17,1,[2732]
844,0,1,2,2013-05-10 07:36:27,3,[2068:2806:2935]
845,6442452876,1,4,2013-05-10 07:36:33,1,[1873]
846,0,1,3,2013-05-10 07:37:42,1,[2346]
847,0,1,4,2013-05-10 07:38:21,1,[4665]
848,6442452873,1,1,2013-05-10 07:38:44,1,[6263]
849,6442452873,1,2,2013-05-10 07:39:03,2,[1660:2270]
850,6442452873,1,3,2013-05-10 07:39:51,1,[2229]
851,6442452873,1,4,2013-05-10 07:40:11,1,[2116]
852,6442452874,1,1,2013-05-10 07:41:28,1,[1727]
853,6442452874,1,2,2013-05-10 07:42:07,2,[4390:4574]
854,6442452874,1,3,2013-05-10 07:42:55,1,[1814]
855,6442452874,1,4,2013-05-10 07:43:09,1,[1462]
856,6442452867,1,1,2013-05-10 07:49:58,1,[2919]
857,6442452867,1,2,2013-05-10 07:50:24,2,[2722:3142]
858,6442452867,1,3,2013-05-10 07:51:11,1,[2055]
859,6442452867,1,4,2013-05-10 07:51:20,1,[813]
860,6442452979,1,1,2013-05-10 07:53:28,1,[3556]
861,6442452980,1,1,2013-05-10 07:53:30,1,[5178]
862,6442452979,1,2,2013-05-10 07:53:36,1,[647]
863,6442452861,1,1,2013-05-10 07:53:53,1,[4261]
864,6442452861,1,2,2013-05-10 07:54:19,1,[3592]
865,6442452980,1,2,2013-05-10 07:54:22,2,[7241:7806]
866,6442452979,1,3,2013-05-10 07:54:32,1,[2780]
867,0,1,1,2013-05-10 07:54:36,1,[2553]
868,6442452858,1,1,2013-05-10 07:54:36,1,[7485]
869,6442452979,1,4,2013-05-10 07:54:45,1,[1379]
870,0,1,2,2013-05-10 07:55:07,18,[2126:2772:3068:3141:3191:3337:3460:3658:3729:3791:3834:3878:3914:3947:4024:4154:4253:4363]
871,6442452979,1,1,2013-05-10 07:55:07,1,[4470]
872,0,1,2,2013-05-10 07:55:08,19,[2126:2772:3068:3141:3191:3337:3460:3658:3729:3791:3834:3878:3914:3947:4024:4154:4253:43632126:2772:3068:3141:3191:3337:3460:3658:3729:3791:3834:3878:3914:3947:4024:4154:4253:4363:4363]
873,6442452861,1,3,2013-05-10 07:55:10,1,[3026]
874,6442452980,1,3,2013-05-10 07:55:16,1,[2963]
875,6442452979,1,2,2013-05-10 07:55:24,1,[1781]
876,6442452861,1,4,2013-05-10 07:55:27,1,[1898]
877,6442452858,1,2,2013-05-10 07:55:28,4,[5265:5977:6208:6548]
878,6442452858,1,2,2013-05-10 07:55:28,5,[5265:5977:6208:65485265:5977:6208:6548:6548]
879,6442452858,1,2,2013-05-10 07:55:29,6,[5265:5977:6208:65485265:5977:6208:6548:65485265:5977:6208:6548:6548:6548]
880,6442452980,1,4,2013-05-10 07:55:38,1,[2735]
881,0,1,3,2013-05-10 07:56:02,1,[2219]
882,0,1,4,2013-05-10 07:56:13,1,[1132]
883,6442452979,1,3,2013-05-10 07:56:22,1,[2181]
884,6442452979,1,4,2013-05-10 07:56:35,1,[1300]
885,6442452869,1,1,2013-05-10 07:56:35,1,[4691]
886,6442452858,1,3,2013-05-10 07:56:36,1,[3283]
887,6442452979,2,1,2013-05-10 07:56:51,1,[1053]
888,6442452858,1,4,2013-05-10 07:56:55,1,[2317]
889,6442452869,1,2,2013-05-10 07:56:57,5,[1758:2124:2297:2336:2915]
890,0,1,1,2013-05-10 07:57:11,1,[3026]
891,6442452979,2,2,2013-05-10 07:57:14,2,[2062:2314]
892,6442452869,1,1,2013-05-10 07:57:24,1,[1784]
893,0,1,2,2013-05-10 07:57:29,16,[39:259:465:555:598:712:1024:1097:1141:1164:1264:1305:1342:1954:2077:2192]
894,0,1,2,2013-05-10 07:57:29,17,[39:259:465:555:598:712:1024:1097:1141:1164:1264:1305:1342:1954:2077:219239:259:465:555:598:712:1024:1097:1141:1164:1264:1305:1342:1954:2077:2192:2192]
895,0,1,2,2013-05-10 07:57:30,18,[39:259:465:555:598:712:1024:1097:1141:1164:1264:1305:1342:1954:2077:219239:259:465:555:598:712:1024:1097:1141:1164:1264:1305:1342:1954:2077:2192:219239:259:465:555:598:712:1024:1097:1141:1164:1264:1305:1342:1954:2077:2192:2192:2192]
896,6442452869,1,2,2013-05-10 07:57:48,3,[2660:2784:2890]
897,6442452869,1,3,2013-05-10 07:58:05,1,[2804]
898,0,1,3,2013-05-10 07:58:18,1,[3105]
899,6442452869,1,4,2013-05-10 07:58:27,1,[2524]
900,0,1,4,2013-05-10 07:58:34,1,[1687]
901,6442452869,1,3,2013-05-10 07:58:41,1,[2420]
902,6442452869,1,4,2013-05-10 07:58:52,1,[1086]
903,6442452858,1,1,2013-05-10 07:59:24,1,[2297]
904,6442452858,1,2,2013-05-10 07:59:42,6,[458:1493:1770:1956:1982:2309]
905,6442452858,1,3,2013-05-10 08:00:26,1,[2592]
906,6442452858,1,4,2013-05-10 08:00:38,1,[1196]
907,6442452979,2,3,2013-05-10 08:01:15,1,[7972]
908,6442452979,2,4,2013-05-10 08:02:43,4,[3846:4064:4181:4306]
909,6442452979,2,5,2013-05-10 08:02:50,1,[527]
910,6442452984,1,1,2013-05-10 08:02:53,1,[1743]
911,6442452979,2,6,2013-05-10 08:03:16,3,[442:551:693]
912,6442452984,1,2,2013-05-10 08:03:20,4,[2649:2881:3041:3158]
913,6442452978,1,1,2013-05-10 08:03:20,1,[1579]
914,6442452978,1,2,2013-05-10 08:03:31,8,[282:582:605:629:684:711:761:958]
915,6442452978,1,2,2013-05-10 08:03:31,9,[282:582:605:629:684:711:761:958282:582:605:629:684:711:761:958:958]
916,6442452984,1,3,2013-05-10 08:04:15,1,[2581]
917,6442452978,1,3,2013-05-10 08:04:33,1,[2292]
918,6442452984,1,4,2013-05-10 08:04:34,1,[2138]
919,6442452978,1,4,2013-05-10 08:04:56,1,[2448]
920,0,1,1,2013-05-10 14:19:14,1,[1795]
921,0,1,2,2013-05-10 14:19:20,1,[353]
922,0,1,3,2013-05-10 14:21:23,1,[3272]
923,0,1,4,2013-05-10 14:21:37,1,[1737]
924,0,1,1,2013-05-10 14:30:32,1,[1669]
925,0,1,2,2013-05-10 14:30:38,1,[304]
926,0,1,3,2013-05-10 14:31:26,1,[1810]
927,0,1,4,2013-05-10 14:31:36,1,[1204]
928,0,1,1,2013-05-10 16:22:51,1,[9767]
929,0,1,2,2013-05-10 16:23:16,1,[4903]
930,0,1,3,2013-05-10 16:24:08,1,[5230]
931,0,1,4,2013-05-10 16:24:23,1,[2612]
932,6442452875,2,1,2013-05-10 16:43:41,1,[987]
933,6442452875,2,2,2013-05-10 16:44:12,2,[3478:4223]
934,6442452875,2,3,2013-05-10 16:49:34,1,[10021]
935,6442452875,2,4,2013-05-10 16:50:48,2,[2673:2882]
936,6442452875,2,5,2013-05-10 16:51:06,2,[3081:3170]
937,6442452875,2,6,2013-05-10 16:51:41,1,[2207]
938,6442452939,1,1,2013-05-11 05:45:01,1,[4852]
939,6442452939,1,2,2013-05-11 05:45:12,7,[404:409:642:649:893:1114:1301]
940,6442452939,1,3,2013-05-11 05:46:08,1,[2989]
941,6442452939,1,4,2013-05-11 05:46:16,1,[870]
942,0,1,1,2013-05-11 09:09:16,1,[5801]
943,0,1,2,2013-05-11 09:09:32,2,[1760:1927]
944,0,1,2,2013-05-11 09:09:34,3,[1760:19271760:1927:1927]
945,0,1,3,2013-05-11 09:10:46,1,[3322]
946,0,1,4,2013-05-11 09:11:04,1,[1741]
947,6442452815,1,1,2013-05-12 13:19:18,1,[4878]
948,6442452815,1,2,2013-05-12 13:19:44,2,[3678:4083]
949,6442452815,1,3,2013-05-12 13:20:38,1,[3057]
950,6442452815,1,4,2013-05-12 13:20:47,1,[944]
951,0,1,1,2013-05-12 13:55:52,1,[11461]
952,0,1,2,2013-05-12 13:56:11,3,[2884:3305:3458]
953,0,1,2,2013-05-12 13:56:12,4,[2884:3305:34582884:3305:3458:3458]
954,0,1,3,2013-05-12 13:57:05,1,[3633]
955,0,1,4,2013-05-12 13:57:16,1,[1550]
956,6442452854,2,1,2013-05-13 07:21:41,1,[604]
957,6442452854,2,2,2013-05-13 07:21:59,1,[1461]
958,6442452854,2,1,2013-05-13 07:24:02,1,[794]
959,0,1,1,2013-05-13 07:24:13,1,[2326]
960,0,1,2,2013-05-13 07:24:26,4,[887:981:1061:1163]
961,6442452978,1,1,2013-05-13 07:24:43,1,[2354]
962,6442452978,1,2,2013-05-13 07:24:50,3,[230:305:365]
963,6442452978,1,2,2013-05-13 07:24:51,6,[230:305:365230:305:365:365:365:365]
964,6442452854,2,2,2013-05-13 07:24:53,1,[5650]
965,0,1,3,2013-05-13 07:25:05,1,[2364]
966,0,1,4,2013-05-13 07:25:17,1,[1066]
967,6442452978,1,3,2013-05-13 07:25:37,1,[1999]
968,6442452867,1,1,2013-05-13 07:25:39,1,[2237]
969,6442452978,1,4,2013-05-13 07:25:49,1,[1121]
970,6442452867,1,2,2013-05-13 07:25:58,3,[1653:2052:2143]
971,6442452867,1,3,2013-05-13 07:26:39,1,[2377]
972,6442452867,1,4,2013-05-13 07:26:48,1,[703]
973,6442452854,2,3,2013-05-13 07:27:07,1,[11923]
974,0,1,1,2013-05-13 12:51:48,1,[5411]
975,0,1,2,2013-05-13 12:52:05,5,[1749:2061:2108:2171:2233]
976,0,1,2,2013-05-13 12:52:06,6,[1749:2061:2108:2171:22331749:2061:2108:2171:2233:2233]
977,0,1,3,2013-05-13 12:52:53,1,[1388]
978,0,1,4,2013-05-13 12:53:04,1,[987]
979,0,1,1,2013-05-13 13:15:18,1,[4474]
980,0,1,2,2013-05-13 13:15:48,2,[5246:5601]
981,0,1,3,2013-05-13 13:16:29,1,[3522]
982,0,1,4,2013-05-13 13:16:41,1,[1597]
983,6442452930,1,1,2013-05-13 13:34:34,1,[9676]
984,6442452930,1,2,2013-05-13 13:34:49,1,[2488]
985,6442452930,1,3,2013-05-13 13:35:53,1,[6561]
986,6442452930,1,4,2013-05-13 13:36:08,1,[2376]
987,6442452980,2,1,2013-05-14 14:02:10,1,[6888]
988,6442452980,2,2,2013-05-14 14:02:34,2,[2324:2677]
989,6442452980,2,3,2013-05-14 14:08:23,1,[15680]
990,6442452980,2,4,2013-05-14 14:09:34,2,[1542:1839]
991,6442452980,2,5,2013-05-14 14:10:21,4,[5263:5511:5807:6002]
992,6442452980,2,6,2013-05-14 14:10:54,3,[1272:1472:1649]
993,0,1,1,2013-05-14 15:11:53,1,[3702]
994,0,1,2,2013-05-14 15:12:20,3,[384:5279:5526]
995,0,1,2,2013-05-14 15:12:21,4,[384:5279:5526384:5279:5526:5526]
996,0,1,3,2013-05-14 15:13:22,1,[3008]
997,0,1,4,2013-05-14 15:13:31,1,[1306]
998,6442452994,2,1,2013-05-14 16:40:19,1,[458]
999,6442452994,2,2,2013-05-14 16:40:35,2,[828:1162]
1000,6442452994,2,3,2013-05-14 16:45:51,1,[5571]
1001,6442452994,2,4,2013-05-14 16:46:54,1,[1165]
1002,6442452994,2,5,2013-05-14 16:47:09,4,[1551:1731:1911:2043]
1003,6442452994,2,6,2013-05-14 16:47:52,1,[3231]
1004,6442452825,3,1,2013-05-15 18:05:58,1,[31922]
1005,6442452825,3,2,2013-05-15 18:08:49,1,[31383]
1006,6442452825,3,3,2013-05-15 18:09:11,1,[3514]
1007,6442452825,3,4,2013-05-15 18:09:31,1,[1534]
1008,6442452825,3,5,2013-05-15 18:09:42,2,[988:1315]
1009,6442452825,3,6,2013-05-15 18:19:24,1,[65987]
1010,6442452825,3,7,2013-05-15 18:19:37,1,[1817]
1011,6442452980,3,1,2013-05-16 14:21:00,1,[16741]
1012,6442452980,3,2,2013-05-16 14:22:46,1,[14053]
1013,6442452980,3,3,2013-05-16 14:23:13,3,[2874:3161:3388]
1014,6442452980,3,4,2013-05-16 14:23:38,1,[2143]
1015,6442452980,3,5,2013-05-16 14:23:50,1,[1099]
1016,6442452980,3,6,2013-05-16 14:27:02,1,[934]
1017,6442452980,3,7,2013-05-16 14:27:24,3,[2223:2617:2898]
1018,0,4,1,2013-05-16 15:25:41,3,[3072:3312:3480]
1019,0,4,2,2013-05-16 15:26:15,1,[3281]
1020,0,4,3,2013-05-16 15:26:46,1,[2880]
1021,0,4,4,2013-05-16 15:27:08,1,[2619]
1022,0,4,5,2013-05-16 15:28:42,1,[11406]
1023,0,4,6,2013-05-16 15:30:02,1,[6607]
1024,0,4,7,2013-05-16 15:30:44,2,[4060:4519]
1025,0,4,8,2013-05-16 15:31:29,3,[2098:2364:2503]
1026,0,4,9,2013-05-16 15:31:56,1,[2924]
1027,0,4,10,2013-05-16 15:32:34,1,[3410]
1028,6442452815,2,1,2013-05-16 15:47:00,1,[702]
1029,6442452815,2,2,2013-05-16 15:47:21,2,[2121:2562]
1030,6442452815,2,3,2013-05-16 15:52:22,1,[12545]
1031,6442452815,2,4,2013-05-16 15:53:25,1,[1425]
1032,6442452815,2,5,2013-05-16 15:53:42,1,[2539]
1033,6442452815,2,6,2013-05-16 15:54:15,1,[2138]
1034,0,1,1,2013-05-16 17:21:12,1,[5183]
1035,0,1,2,2013-05-16 17:21:44,2,[4449:5774]
1036,6442453013,2,1,2013-05-16 17:21:49,1,[1387]
1037,6442453013,2,2,2013-05-16 17:22:14,1,[4098]
1038,0,1,3,2013-05-16 17:22:53,1,[4712]
1039,0,1,4,2013-05-16 17:23:24,1,[5137]
1040,6442453013,2,3,2013-05-16 17:28:09,1,[24823]
1041,6442453013,2,4,2013-05-16 17:29:36,3,[2221:3014:5897]
1042,6442453013,2,5,2013-05-16 17:30:00,1,[4592]
1043,6442453013,2,6,2013-05-16 17:30:36,1,[3328]
1044,0,1,1,2013-05-17 16:20:56,1,[2265]
1045,0,1,2,2013-05-17 16:21:25,1,[4068]
1046,0,1,3,2013-05-17 16:22:09,1,[2048]
1047,0,1,4,2013-05-17 16:22:20,1,[1028]
1048,6442452980,4,1,2013-05-18 15:03:49,2,[1658:2115]
1049,6442452980,4,2,2013-05-18 15:04:08,1,[1504]
1050,6442452980,4,3,2013-05-18 15:04:27,2,[1305:1633]
1051,6442452980,4,4,2013-05-18 15:04:39,3,[878:1256:1530]
1052,6442452980,4,5,2013-05-18 15:06:02,1,[11443]
1053,6442452980,4,6,2013-05-18 15:07:09,1,[5052]
1054,6442452980,4,7,2013-05-18 15:07:22,1,[475]
1055,6442452980,4,8,2013-05-18 15:07:52,1,[626]
1056,6442452980,4,9,2013-05-18 15:08:06,2,[1611:1980]
1057,6442452980,4,10,2013-05-18 15:08:26,1,[1685]
1058,6442452815,3,1,2013-05-19 15:59:30,1,[11913]
1059,6442452815,3,2,2013-05-19 16:01:22,1,[17918]
1060,6442452815,3,3,2013-05-19 16:01:44,2,[3137:3400]
1061,6442452815,3,4,2013-05-19 16:02:05,1,[1653]
1062,6442452815,3,5,2013-05-19 16:02:13,1,[485]
1063,6442452815,3,6,2013-05-19 16:05:23,1,[947]
1064,6442452815,3,7,2013-05-19 16:05:40,1,[2180]
1065,0,1,1,2013-05-22 07:48:22,1,[3779]
1066,0,1,2,2013-05-22 07:48:42,1,[3149]
