sno,userid,vignette,qno,timestamp,attempts,matrix
1,555,1,1,2012-08-24 10:18:18,1,[1430]
2,555,1,2,2012-08-24 10:18:49,3,[254:610:2660]
3,555,1,3,2012-08-24 10:21:39,1,[1393]
4,555,1,4,2012-08-24 10:22:17,1,[3976]
5,5551,1,1,2012-08-24 12:59:32,1,[2668]
6,5551,1,2,2012-08-24 13:02:55,4,[25547:25786:26018:26232]
7,5551,1,3,2012-08-24 13:04:18,1,[2307]
8,5551,1,4,2012-08-24 13:04:51,1,[3910]
9,10131,1,1,2012-08-24 15:26:41,1,[8095]
10,10131,1,2,2012-08-24 15:26:47,1,[445]
11,4444,1,1,2012-08-24 18:26:23,1,[2490]
12,4444,1,2,2012-08-24 18:26:58,3,[3016:4597:6616]
13,4444,1,3,2012-08-24 18:28:32,1,[3426]
14,4444,1,4,2012-08-24 18:51:27,1,[NaN]
15,10015,1,1,2012-08-25 10:36:21,1,[10541]
16,10015,1,2,2012-08-25 10:36:35,1,[2607]
17,10015,1,3,2012-08-25 10:37:42,1,[5141]
18,10015,1,4,2012-08-25 10:37:56,1,[2355]
19,6070,1,1,2012-08-27 07:24:23,1,[2193]
20,6070,1,2,2012-08-27 07:24:28,1,[333]
21,6070,1,3,2012-08-27 07:32:51,1,[7756]
22,6070,1,4,2012-08-27 07:33:08,1,[2183]
23,10131,2,3,2012-08-27 11:31:13,1,[119365]
24,10131,2,4,2012-08-27 11:32:29,4,[2442:2799:3068:3320]
25,10131,2,5,2012-08-27 11:34:46,1,[23794]
26,10131,2,6,2012-08-27 11:35:38,4,[4409:4861:5182:5709]
27,6070,1,1,2012-08-27 17:55:18,1,[4625]
28,6070,1,2,2012-08-27 17:55:35,3,[2515:2716:2931]
29,6070,1,3,2012-08-27 17:56:44,1,[3741]
30,6070,1,4,2012-08-27 17:56:55,1,[1342]
31,6070,1,1,2012-08-27 19:16:31,1,[30491]
32,6070,1,2,2012-08-27 19:17:01,3,[1777:2090:5546]
33,6070,1,3,2012-08-27 19:18:11,1,[3791]
34,6070,1,4,2012-08-27 19:18:45,1,[6439]
35,6442450948,1,1,2012-08-28 07:37:05,1,[4637]
36,6442450948,1,2,2012-08-28 07:37:22,4,[446:626:819:2212]
37,6442450948,1,3,2012-08-28 07:39:54,1,[6446]
38,6442450948,1,4,2012-08-28 07:40:13,1,[2626]
39,6070,2,1,2012-08-29 05:53:11,1,[4537]
40,6070,2,2,2012-08-29 05:53:27,1,[857]
41,6070,2,3,2012-08-29 06:20:31,1,[83976]
42,6070,2,4,2012-08-29 06:22:54,4,[18431:19231:29441:29859]
43,6070,2,5,2012-08-29 06:23:17,4,[4050:4328:4628:4896]
44,6070,2,6,2012-08-29 06:23:55,1,[4648]
45,6442450948,1,1,2012-08-29 09:15:49,1,[4740]
46,6442450948,1,2,2012-08-29 09:16:02,1,[1613]
47,6442450948,1,3,2012-08-29 09:18:03,1,[6848]
48,6442450948,1,4,2012-08-29 09:18:16,1,[1512]
49,6442450970,1,1,2012-08-29 10:32:10,1,[3674]
50,6442450970,1,2,2012-08-29 10:32:22,1,[2050]
51,6442450970,1,3,2012-08-29 10:33:28,1,[6152]
52,6442450970,1,4,2012-08-29 10:33:44,1,[2796]
53,6442450980,1,1,2012-08-31 19:06:00,1,[3154]
54,6442450980,1,2,2012-08-31 19:06:27,1,[4798]
55,6442450980,1,3,2012-08-31 19:07:07,1,[2214]
56,6442450980,1,4,2012-08-31 19:07:17,1,[1245]
57,9441,5,1,2012-09-03 02:28:12,0,[0]
58,9441,5,2,2012-09-03 02:30:07,0,[1]
59,9441,5,3,2012-09-03 02:31:03,0,[1]
60,kayjay,5,1,2012-09-03 06:27:43,0,[1]
61,kayjay,5,2,2012-09-03 06:28:59,0,[0]
62,kayjay,5,3,2012-09-03 06:30:14,0,[5]
63,kayjay,5,4,2012-09-03 06:32:05,0,[0]
64,kayjay,5,5,2012-09-03 06:32:50,0,[0]
65,kayjay,5,6,2012-09-03 06:34:08,0,[0]
66,kayjay,5,7,2012-09-03 06:37:20,0,[2]
67,kayjay,5,8,2012-09-03 06:38:31,0,[1]
68,kayjay,5,9,2012-09-03 06:38:54,0,[3]
69,kayjay,5,10,2012-09-03 06:41:05,0,[1]
70,Jonas,4,1,2012-09-03 07:02:24,2,[9239:9881]
71,Jonas,4,2,2012-09-03 07:02:53,2,[2919:3463]
72,Jonas,4,3,2012-09-03 07:03:15,1,[2056]
73,Jonas,4,4,2012-09-03 07:03:57,1,[7292]
74,Jonas,4,5,2012-09-03 07:05:29,1,[17078]
75,AJ,4,1,2012-09-03 07:07:39,3,[1769:1974:2210]
76,AJ,4,2,2012-09-03 07:08:11,1,[4072]
77,Jonas,4,6,2012-09-03 07:08:28,1,[30027]
78,Jonas,4,7,2012-09-03 07:08:55,3,[2075:2519:2913]
79,AJ,4,3,2012-09-03 07:08:56,4,[6176:6854:7060:7160]
80,AJ,4,4,2012-09-03 07:09:16,2,[2585:2690]
81,Jonas,4,8,2012-09-03 07:09:33,2,[960:1530]
82,Jonas,4,9,2012-09-03 07:09:49,4,[807:1274:1530:1784]
83,Jonas,4,10,2012-09-03 07:10:06,1,[753]
84,AJ,4,5,2012-09-03 07:10:49,1,[16990]
85,Kevvv,5,1,2012-09-03 07:14:27,0,[0]
86,Kevvv,5,2,2012-09-03 07:15:51,0,[1]
87,Kevvv,5,3,2012-09-03 07:17:08,0,[5]
88,Kevvv,5,4,2012-09-03 07:19:08,0,[0]
89,Kevvv,5,5,2012-09-03 07:19:30,0,[1]
90,Kevvv,5,6,2012-09-03 07:20:40,0,[0]
91,Kevvv,5,7,2012-09-03 07:23:52,0,[1]
92,Kevvv,5,8,2012-09-03 07:25:07,0,[0]
93,Kevvv,5,9,2012-09-03 07:25:25,0,[3]
94,Kevvv,5,10,2012-09-03 07:27:32,0,[0]
95,AJ2,4,1,2012-09-03 07:30:15,3,[1667:1777:2394]
96,AJ2,4,2,2012-09-03 07:30:48,1,[4613]
97,Cunt Features,5,1,2012-09-03 07:31:03,0,[1]
98,AJ2,4,3,2012-09-03 07:31:06,3,[562:825:975]
99,AJ2,4,4,2012-09-03 07:31:16,2,[250:374]
100,Cunt Features,5,2,2012-09-03 07:32:17,0,[0]
101,AJ2,4,5,2012-09-03 07:33:03,1,[20527]
102,Cunt Features,5,3,2012-09-03 07:33:36,0,[5]
103,AJ2,4,6,2012-09-03 07:34:27,1,[9110]
104,AJ2,4,7,2012-09-03 07:34:45,1,[510]
105,Cunt Features,5,4,2012-09-03 07:35:12,0,[1]
106,AJ2,4,8,2012-09-03 07:35:18,1,[362]
107,AJ2,4,9,2012-09-03 07:35:30,4,[396:501:610:738]
108,Cunt Features,5,5,2012-09-03 07:35:38,0,[0]
109,AJ2,4,10,2012-09-03 07:35:58,2,[2566:3361]
110,Cunt Features,5,6,2012-09-03 07:36:49,0,[1]
111,Cunt Features,5,7,2012-09-03 07:40:15,0,[1]
112,AJ3,5,1,2012-09-03 07:40:53,0,[0]
113,Cunt Features,5,8,2012-09-03 07:41:53,0,[1]
114,Cunt Features,5,9,2012-09-03 07:42:38,0,[0]
115,Cunt Features,5,10,2012-09-03 07:44:39,0,[0]
116,AJ3,5,2,2012-09-03 07:44:45,0,[1]
117,AJ3,5,3,2012-09-03 07:45:51,0,[5]
118,AJ3,5,4,2012-09-03 07:48:43,0,[0]
119,AJ3,5,5,2012-09-03 07:49:27,0,[1]
120,AJ3,5,6,2012-09-03 07:51:22,0,[0]
121,v,4,1,2012-09-03 07:52:33,4,[1639:2010:2262:2462]
122,kayjay,5,1,2012-09-03 07:52:55,0,[1]
123,v,4,2,2012-09-03 07:52:58,2,[2180:2550]
124,v,4,3,2012-09-03 07:53:18,4,[928:1188:1346:1621]
125,v,4,4,2012-09-03 07:53:29,1,[612]
126,kayjay,5,2,2012-09-03 07:54:10,0,[1]
127,AJ3,5,7,2012-09-03 07:54:34,0,[2]
128,v,4,5,2012-09-03 07:54:43,1,[12955]
129,AJ3,5,8,2012-09-03 07:55:45,0,[1]
130,v,4,6,2012-09-03 07:55:54,1,[7095]
131,AJ3,5,9,2012-09-03 07:56:10,0,[0]
132,v,4,7,2012-09-03 07:56:15,1,[1828]
133,v,4,8,2012-09-03 07:56:52,4,[446:682:901:1213]
134,v,4,9,2012-09-03 07:57:15,1,[3198]
135,v,4,10,2012-09-03 07:57:35,1,[1581]
136,AJ3,5,10,2012-09-03 07:58:25,0,[1]
137,kayjay,5,3,2012-09-03 07:59:55,0,[3]
138,Hoffman,4,1,2012-09-03 11:03:02,7,[1474:1928:2205:2765:3040:4397:4607]
139,Hoffman,4,2,2012-09-03 11:05:29,1,[661]
140,Hoffman,4,3,2012-09-03 11:05:44,1,[462]
141,Hoffman,4,4,2012-09-03 11:05:56,2,[684:856]
142,333,5,1,2012-09-03 11:09:23,0,[1]
143,333,5,2,2012-09-03 11:10:37,0,[0]
144,333,5,3,2012-09-03 11:12:48,0,[3]
145,333,5,4,2012-09-03 11:16:05,0,[2]
146,333,5,5,2012-09-03 11:16:28,0,[1]
147,333,5,6,2012-09-03 11:17:32,0,[1]
148,Kochan,5,1,2012-09-03 12:03:48,0,[1]
149,Kochan,5,2,2012-09-03 12:05:05,0,[1]
150,Kochan,5,3,2012-09-03 12:06:24,0,[5]
151,Chutzpag,4,1,2012-09-04 04:17:16,2,[1778:1922]
152,Chutzpag,4,2,2012-09-04 04:17:31,1,[567]
153,Chutzpag,4,3,2012-09-04 04:18:09,2,[550:1959]
154,Chutzpag,4,4,2012-09-04 04:31:58,1,[2407]
155,Chutzpag,4,5,2012-09-04 04:37:47,1,[43675]
156,SR,4,1,2012-09-04 04:49:36,3,[6738:7081:7448]
157,SR,4,2,2012-09-04 04:50:08,3,[4508:4595:4730]
158,SR,4,3,2012-09-04 04:50:56,2,[8414:8725]
159,SR,4,4,2012-09-04 04:51:36,3,[7052:7413:7688]
160,Chutzpag,4,6,2012-09-04 04:53:33,1,[20960]
161,SR,4,5,2012-09-04 04:53:35,1,[25217]
162,Chutzpag,4,7,2012-09-04 04:54:00,4,[1586:2038:2323:2636]
163,Chutzpag,4,8,2012-09-04 04:55:38,1,[454]
164,Chutzpag,4,9,2012-09-04 04:55:50,1,[1061]
165,Chutzpag,4,10,2012-09-04 04:56:19,1,[3548]
166,SR,4,6,2012-09-04 04:57:22,1,[27752]
167,SR,4,7,2012-09-04 04:58:06,1,[7509]
168,SR,4,8,2012-09-04 04:59:34,2,[13486:13690]
169,SR,4,9,2012-09-04 05:00:10,3,[6496:6698:6910]
170,SR,4,10,2012-09-04 05:00:47,1,[5811]
171,SR,5,1,2012-09-04 05:15:44,0,[1]
172,SR,5,2,2012-09-04 05:17:08,0,[1]
173,SR,5,3,2012-09-04 05:18:27,0,[5]
174,SR,5,4,2012-09-04 05:20:29,0,[2]
175,SR,5,5,2012-09-04 05:21:01,0,[0]
176,SR,5,6,2012-09-04 05:22:07,0,[1]
177,SR,5,7,2012-09-04 05:24:58,0,[2]
178,SR,5,8,2012-09-04 05:28:12,0,[0]
179,SR,5,9,2012-09-04 05:28:34,0,[1]
180,SR,5,10,2012-09-04 05:30:56,0,[2]
181,6442450970,5,1,2012-09-04 08:29:19,0,[1]
182,6442450970,5,2,2012-09-04 08:30:31,0,[1]
183,6442450970,5,3,2012-09-04 08:31:40,0,[5]
184,Bruce,2,1,2012-09-04 08:48:20,1,[804]
185,Heshie,4,1,2012-09-05 15:44:10,1,[15354]
186,Heshie,4,2,2012-09-05 15:45:20,1,[13697]
187,Heshie,4,3,2012-09-05 15:47:05,1,[20497]
188,Heshie,4,4,2012-09-05 15:48:03,1,[11539]
189,Heshie,4,5,2012-09-05 15:52:22,1,[54385]
190,Josh,1,1,2012-09-06 08:29:05,1,[9486]
191,Josh,1,2,2012-09-06 08:29:25,1,[3514]
192,Josh,1,3,2012-09-06 08:30:21,1,[4068]
193,Josh,1,4,2012-09-06 08:30:39,1,[3060]
194,geffy,5,1,2012-09-06 09:22:45,0,[1]
195,geffy,5,2,2012-09-06 09:24:01,0,[0]
196,geffy,5,3,2012-09-06 09:25:19,0,[5]
197,SR,4,1,2012-09-11 10:09:14,2,[4197:7394]
198,SR,4,2,2012-09-11 10:09:41,4,[3378:3863:4105:4307]
199,SR,4,3,2012-09-11 10:10:04,4,[2508:2768:2926:3041]
200,SR,4,4,2012-09-11 10:10:17,1,[2564]
201,SR,4,5,2012-09-11 10:25:20,1,[220283]
202,SR,4,6,2012-09-11 10:26:57,1,[14870]
203,SR,4,7,2012-09-11 10:27:35,4,[4410:5055:5338:5545]
204,SR,4,8,2012-09-11 10:28:12,1,[3381]
205,SR,4,9,2012-09-11 10:28:37,1,[5528]
206,SR,4,10,2012-09-11 10:29:00,1,[3144]
207,Bruce,4,1,2012-09-12 09:02:23,2,[4227:4543]
208,Bruce,4,2,2012-09-12 09:02:39,4,[823:1016:1190:1347]
209,Bruce,4,3,2012-09-12 09:02:54,4,[574:648:852:996]
210,Bruce,4,4,2012-09-12 09:02:59,1,[647]
211,Bruce,4,5,2012-09-12 09:04:19,1,[16559]
212,Bruce,4,6,2012-09-12 09:05:52,1,[13838]
213,Bruce,4,7,2012-09-12 09:06:53,4,[11524:11618:11783:11928]
214,Bruce,4,8,2012-09-12 09:07:21,1,[532]
215,Bruce,4,9,2012-09-12 09:07:27,2,[301:496]
216,Bruce,4,10,2012-09-12 09:07:39,1,[309]
217,Bruce,5,1,2012-09-12 09:09:45,0,[0]
218,Bruce,5,2,2012-09-12 09:11:21,0,[1]
219,Bruce,5,3,2012-09-12 09:11:47,0,[1]
220,Bruce,5,4,2012-09-12 09:13:30,0,[2]
221,Bruce,5,5,2012-09-12 09:13:59,0,[0]
222,Bruce,5,6,2012-09-12 09:16:23,0,[0]
223,Bruce,5,7,2012-09-12 09:19:21,0,[2]
224,Bruce,5,8,2012-09-12 09:20:31,0,[1]
225,Bruce,5,9,2012-09-12 09:21:15,0,[0]
226,Bruce,5,10,2012-09-12 09:23:07,0,[0]
227,geffy,2,1,2012-09-12 13:54:11,4,[46902:47500:47913:48339]
228,geffy,2,1,2012-09-13 04:40:22,4,[1814:2236:2649:3582]
229,geffy,2,2,2012-09-13 04:41:28,4,[6803:7405:13681:14373]
230,geffy,2,3,2012-09-13 05:05:18,1,[182792]
231,geffy,2,4,2012-09-13 05:06:37,4,[4047:4615:5033:5435]
232,geffy,2,5,2012-09-13 05:07:07,3,[5217:5541:6253]
233,geffy,2,6,2012-09-13 05:08:05,2,[8027:8671]
234,jefy,3,1,2012-09-13 05:31:45,1,[40563]
235,jefy,3,2,2012-09-13 05:35:09,1,[41819]
236,jefy,3,3,2012-09-13 05:39:02,2,[25670:26029]
237,jefy,3,4,2012-09-13 05:39:31,3,[2618:3170:4033]
238,jefy,3,5,2012-09-13 05:39:49,2,[2292:2885]
239,jefy,3,6,2012-09-13 05:46:38,3,[20357:20679:21342]
240,jefy,3,7,2012-09-13 05:47:00,3,[2727:3139:3839]
241,jefy,4,1,2012-09-13 05:55:04,1,[4639]
242,jefy,4,2,2012-09-13 05:55:49,4,[6977:7543:7978:8312]
243,jefy,4,3,2012-09-13 05:56:12,2,[2537:3148]
244,jefy,4,4,2012-09-13 05:56:36,4,[4086:4436:4805:5089]
245,jefy,4,5,2012-09-13 06:00:22,1,[50227]
246,jefy,4,6,2012-09-13 06:01:56,1,[13489]
247,jefy,4,7,2012-09-13 06:02:24,2,[3651:4274]
248,jefy,4,8,2012-09-13 06:02:56,1,[1231]
249,jefy,4,9,2012-09-13 06:03:14,2,[2961:3555]
250,jefy,4,10,2012-09-13 06:04:53,2,[21223:21552]
251,0000,5,1,2012-09-13 06:09:48,0,[0]
252,0000,5,2,2012-09-13 06:12:15,0,[1]
253,0000,5,3,2012-09-13 06:15:15,0,[5]
254,0000,5,4,2012-09-13 06:20:10,0,[0]
255,0000,5,5,2012-09-13 06:20:34,0,[1]
256,0000,5,6,2012-09-13 06:22:47,0,[1]
257,0000,5,7,2012-09-13 06:26:10,0,[2]
258,0000,5,8,2012-09-13 06:27:22,0,[1]
259,0000,5,9,2012-09-13 06:27:43,0,[0]
260,0000,5,10,2012-09-13 06:29:48,0,[1]
261,0000,4,1,2012-09-13 07:21:05,3,[2068:36448:36892]
262,0000,4,2,2012-09-13 07:21:26,3,[1619:1992:2404]
263,0000,4,3,2012-09-13 07:22:35,1,[14574]
264,0000,4,4,2012-09-13 07:22:48,2,[1506:2472]
265,0000,4,5,2012-09-13 07:30:33,1,[112101]
266,0000,4,6,2012-09-13 07:31:53,1,[10753]
267,0000,4,7,2012-09-13 07:32:56,1,[12901]
268,0000,4,8,2012-09-13 07:34:53,1,[22545]
269,0000,4,9,2012-09-13 07:35:04,4,[640:950:1249:1667]
270,0000,4,10,2012-09-13 07:35:24,3,[1576:1927:2276]
271,6442451013,1,1,2012-09-15 14:35:54,1,[4341]
272,6442451013,1,2,2012-09-15 14:36:23,3,[3539:4070:4470]
273,6442451013,1,3,2012-09-15 14:37:31,1,[3452]
274,6442451013,1,4,2012-09-15 14:37:53,1,[3279]
275,Bruce,4,1,2012-09-17 10:02:46,1,[12321]
276,Bruce,4,2,2012-09-17 10:03:01,1,[927]
277,Bruce,4,3,2012-09-17 10:03:14,1,[799]
278,Bruce,4,4,2012-09-17 10:03:25,1,[1660]
279,Nima,4,1,2012-09-17 11:21:41,1,[1398]
280,Nima,4,2,2012-09-17 11:21:58,4,[486:731:939:1284]
281,Nima,4,3,2012-09-17 11:22:13,4,[459:685:839:1062]
282,Nima,4,4,2012-09-17 11:22:17,1,[469]
283,Jonas,4,1,2012-09-19 10:03:13,1,[940]
284,Sandra,4,1,2012-09-19 14:56:12,1,[1540]
285,Sandra,4,2,2012-09-19 14:56:42,1,[4303]
286,Sandra,4,3,2012-09-19 14:56:56,1,[916]
287,Sandra,4,4,2012-09-19 14:57:25,1,[5635]
288,Tim,4,1,2012-09-20 10:36:02,1,[5406]
289,Tim,4,2,2012-09-20 10:36:44,1,[7029]
290,Tim,4,3,2012-09-20 10:36:58,1,[897]
291,Tim,4,4,2012-09-20 10:37:06,1,[944]
292,statgamer,4,1,2012-09-20 18:22:42,3,[1678:2032:2265]
293,statgamer,4,2,2012-09-20 18:23:03,1,[2272]
294,statgamer,4,3,2012-09-20 18:23:22,1,[2005]
295,statgamer,4,4,2012-09-20 18:23:34,1,[1834]
296,6442451061,1,1,2012-09-28 17:25:08,1,[5495]
297,6442451061,1,2,2012-09-28 17:25:35,1,[4513]
298,6442451061,1,3,2012-09-28 17:26:41,1,[2441]
299,6442451061,1,4,2012-09-28 17:26:50,1,[921]
300,Alison,4,1,2012-10-04 11:09:03,1,[2861]
301,Alison,4,2,2012-10-04 11:09:19,1,[1460]
302,Alison,4,3,2012-10-04 11:09:53,3,[4394:4656:5083]
303,Alison,4,4,2012-10-04 11:10:00,1,[851]
304,Andrew,2,1,2012-10-09 05:38:22,1,[2281]
305,Andrew,2,2,2012-10-09 05:38:41,2,[2272:2771]
306,Andrew,2,3,2012-10-09 05:44:28,1,[30585]
307,Andrew,2,4,2012-10-09 05:45:54,3,[4899:5437:7389]
308,Andrew,2,5,2012-10-09 05:47:05,4,[11229:12231:12829:13207]
309,Andrew,2,6,2012-10-09 05:47:58,1,[6406]
310,Andrew,3,1,2012-10-09 05:56:05,1,[22242]
311,Andrew,3,2,2012-10-09 05:58:06,1,[24536]
312,Andrew,3,3,2012-10-09 05:59:12,2,[8533:9127]
313,Andrew,3,4,2012-10-09 06:01:23,2,[29201:29403]
314,Andrew,3,5,2012-10-09 06:01:35,1,[1840]
315,Andrew,3,6,2012-10-09 06:04:45,1,[1242]
316,Andrew,3,7,2012-10-09 06:05:11,4,[4369:4654:4871:5127]
317,Andrew,4,1,2012-10-09 06:11:35,1,[2522]
318,Andrew,4,2,2012-10-09 06:11:56,2,[2334:2637]
319,Andrew,4,3,2012-10-09 06:12:18,3,[2407:2675:2897]
320,Andrew,4,4,2012-10-09 06:12:34,3,[2676:2898:3152]
321,Andrew,4,5,2012-10-09 06:14:18,1,[20730]
322,Andrew,4,6,2012-10-09 06:15:25,1,[7657]
323,Andrew,4,7,2012-10-09 06:16:02,4,[5785:5933:6074:6463]
324,Andrew,4,8,2012-10-09 06:16:41,1,[3360]
325,Andrew,4,9,2012-10-09 06:16:56,3,[2180:2328:2628]
326,Andrew,4,10,2012-10-09 06:17:30,4,[4623:4830:5712:5887]
327,Andrew,5,1,2012-10-09 06:19:38,0,[1]
328,Andrew,5,2,2012-10-09 06:20:53,0,[1]
329,Andrew,5,3,2012-10-09 06:22:04,0,[5]
330,Andrew,5,4,2012-10-09 06:23:44,0,[1]
331,Andrew,5,5,2012-10-09 06:24:09,0,[0]
332,Andrew,5,6,2012-10-09 06:25:24,0,[1]
333,Andrew,5,7,2012-10-09 06:28:28,0,[2]
334,Andrew,5,8,2012-10-09 06:29:39,0,[1]
335,Andrew,5,9,2012-10-09 06:30:04,0,[3]
336,Andrew,5,10,2012-10-09 06:32:09,0,[2]
337,RJKfxTzdw6,1,1,2012-10-09 12:23:07,1,[3436]
338,RJKfxTzdw6,1,2,2012-10-09 12:23:33,3,[2712:3565:4046]
339,RJKfxTzdw6,1,3,2012-10-09 12:24:30,1,[3704]
340,RJKfxTzdw6,1,4,2012-10-09 12:24:43,1,[1787]
341,6442451108,1,1,2012-10-12 12:00:04,1,[1645]
342,6442451108,1,2,2012-10-12 12:00:21,1,[1697]
343,6442451108,1,3,2012-10-12 12:01:20,1,[3165]
344,6442451108,1,4,2012-10-12 12:01:32,1,[1212]
345,Graham,5,1,2012-10-12 16:35:09,0,[1]
346,Graham,5,2,2012-10-12 16:36:41,0,[1]
347,Graham,5,3,2012-10-12 16:37:50,0,[5]
348,10015,1,1,2012-10-24 06:25:37,1,[6900]
349,10015,1,2,2012-10-24 06:26:10,2,[4206:4706]
350,10015,1,3,2012-10-24 06:27:16,1,[2892]
351,10015,1,4,2012-10-24 06:27:45,1,[3245]
352,6442451173,1,1,2012-10-24 10:13:49,1,[1659]
353,6442451173,1,2,2012-10-24 10:13:55,1,[288]
354,6442451173,1,3,2012-10-24 10:14:41,1,[2521]
355,6442451173,1,4,2012-10-24 10:14:51,1,[979]
356,6442451183,1,1,2012-10-25 11:31:52,1,[8832]
357,6442451183,1,2,2012-10-25 11:32:02,3,[922:1078:1209]
358,6442451183,1,2,2012-10-25 11:32:03,4,[922:1078:1209922:1078:1209:1209]
359,6442451183,1,3,2012-10-25 11:33:29,1,[5950]
360,6442451183,1,4,2012-10-25 11:33:47,1,[3032]
361,6442451256,1,1,2012-10-30 11:57:27,1,[5210]
362,6442451256,1,2,2012-10-30 11:57:53,1,[3882]
363,6442451256,1,3,2012-10-30 11:58:48,1,[4316]
364,6442451256,1,4,2012-10-30 11:59:02,1,[1635]
365,10016,1,1,2012-11-07 09:27:27,1,[3933]
366,10016,1,2,2012-11-07 09:27:45,2,[2582:2868]
367,10016,1,3,2012-11-07 09:28:30,1,[2752]
368,10016,1,4,2012-11-07 09:28:48,1,[2791]
369,10018,1,1,2012-11-07 13:21:36,1,[2582]
370,10018,1,2,2012-11-07 13:22:13,2,[4466:4823]
371,10018,1,3,2012-11-07 13:23:07,1,[2191]
372,10018,1,4,2012-11-07 13:23:28,1,[2295]
373,josh,4,1,2012-11-08 08:29:24,3,[2188:2774:3004]
374,josh,4,2,2012-11-08 08:29:40,4,[861:945:1149:1366]
375,josh,4,3,2012-11-08 08:29:58,4,[848:1101:1293:1467]
376,josh,4,4,2012-11-08 08:30:10,2,[1832:2047]
377,6442451340,1,1,2012-11-08 13:21:32,1,[8517]
378,6442451340,1,2,2012-11-08 13:22:13,3,[8123:9073:9296]
379,6442451340,1,3,2012-11-08 13:23:04,1,[6200]
380,6442451340,1,4,2012-11-08 13:23:20,1,[2607]
381,123,1,1,2012-11-14 08:25:30,1,[7734]
382,123,1,2,2012-11-14 08:25:46,1,[2818]
383,123,1,3,2012-11-14 08:26:58,1,[7813]
384,123,1,4,2012-11-14 08:27:26,1,[5432]
385,444444,4,1,2012-11-15 04:16:33,1,[9819]
386,444444,4,2,2012-11-15 04:17:12,2,[6362:6665]
387,444444,4,3,2012-11-15 04:17:48,3,[5490:5667:5923]
388,444444,4,4,2012-11-15 04:24:49,3,[69012:69694:69936]
389,444444,4,5,2012-11-15 04:26:50,1,[24196]
390,444444,4,6,2012-11-15 04:28:34,1,[15285]
391,444444,4,7,2012-11-15 04:29:10,3,[5367:5674:5854]
392,444444,4,8,2012-11-15 04:30:07,1,[7214]
393,444444,4,9,2012-11-15 04:30:33,1,[5413]
394,444444,4,10,2012-11-15 04:31:14,2,[6592:6866]
395,6442451481,1,1,2012-11-29 03:44:13,1,[9987]
396,6442451481,1,2,2012-11-29 03:46:03,2,[25118:25386]
397,6442451481,1,3,2012-11-29 03:48:05,1,[7847]
398,6442451481,1,4,2012-11-29 03:48:24,1,[3447]
399,Nima,4,1,2012-12-07 06:07:14,1,[743]
400,Nima,4,2,2012-12-07 06:07:32,2,[1241:1740]
401,Nima,4,3,2012-12-07 06:07:51,1,[1934]
402,Nima,4,4,2012-12-07 06:08:00,1,[1154]
403,6442451392,1,1,2013-01-07 03:52:32,1,[6974]
404,6442451392,1,2,2013-01-07 03:52:50,1,[2623]
405,n,2,1,2013-01-10 04:34:53,1,[1464]
406,n,2,2,2013-01-10 04:35:10,2,[1786:2216]
407,8589934596,1,1,2013-01-22 08:16:53,1,[2864]
408,8589934596,1,2,2013-01-22 08:16:59,1,[330]
409,8589934596,1,2,2013-01-22 08:17:00,2,[330330:330]
410,8589934596,1,2,2013-01-22 08:17:00,3,[330330:330330:330:330]
411,8589934596,1,2,2013-01-22 08:17:01,4,[330330:330330:330:330330:330:330:330]
412,8589934596,1,3,2013-01-22 08:18:00,1,[3296]
413,%%USERID%%,1,1,2013-01-22 10:47:52,1,[2463]
414,%%USERID%%,1,2,2013-01-22 10:47:57,1,[278]
415,%%USERID%%,1,3,2013-01-22 10:48:48,1,[3449]
416,%%USERID%%,1,4,2013-01-22 10:49:18,1,[5856]
417,%%USERID%%,1,1,2013-01-23 05:31:31,1,[2899]
418,%%USERID%%,1,2,2013-01-23 05:31:37,1,[317]
419,%%USERID%%,1,3,2013-01-23 05:32:42,1,[4010]
420,%%USERID%%,1,4,2013-01-23 05:32:53,1,[1581]
421,%%USERID%%,1,1,2013-01-29 08:16:40,1,[2119]
422,%%USERID%%,1,2,2013-01-29 08:16:46,1,[392]
423,%%USERID%%,1,2,2013-01-29 08:16:46,2,[392392:392]
424,%%USERID%%,1,2,2013-01-29 08:16:46,3,[392392:392392:392:392]
425,%%USERID%%,1,2,2013-01-29 08:16:47,4,[392392:392392:392:392392:392:392:392]
426,%%USERID%%,1,3,2013-01-29 08:17:50,1,[4788]
427,%%USERID%%,1,4,2013-01-29 08:18:03,1,[1899]
428,%%USERID%%,1,1,2013-01-29 15:43:53,1,[6834]
429,%%USERID%%,1,2,2013-01-29 15:44:22,3,[3220:3675:4325]
430,%%USERID%%,1,2,2013-01-29 15:44:23,4,[3220:3675:43253220:3675:4325:4325]
431,%%USERID%%,1,3,2013-01-29 15:45:24,1,[4721]
432,%%USERID%%,1,4,2013-01-29 15:45:42,1,[2360]
433,%%USERID%%,1,1,2013-01-30 12:23:22,1,[3806]
434,%%USERID%%,1,2,2013-01-30 12:23:39,3,[2089:2407:2686]
435,%%USERID%%,1,3,2013-01-30 12:24:42,1,[5679]
436,%%USERID%%,1,4,2013-01-30 12:25:03,1,[3789]
437,%%USERID%%,1,1,2013-01-30 13:11:06,1,[4060]
438,%%USERID%%,1,2,2013-01-30 13:11:22,1,[2473]
439,%%USERID%%,1,3,2013-01-30 13:12:43,1,[4476]
440,%%USERID%%,1,4,2013-01-30 13:13:00,1,[2173]
441,%%USERID%%,1,1,2013-01-31 12:59:04,1,[3639]
442,%%USERID%%,1,2,2013-01-31 12:59:18,3,[1353:1938:2099]
443,%%USERID%%,1,3,2013-01-31 13:00:15,1,[4736]
444,%%USERID%%,1,4,2013-01-31 13:00:31,1,[2364]
445,%%USERID%%,1,1,2013-01-31 13:48:40,1,[4344]
446,%%USERID%%,1,2,2013-01-31 13:49:20,3,[5078:6188:6643]
447,%%USERID%%,1,3,2013-01-31 13:50:17,1,[3604]
448,%%USERID%%,1,4,2013-01-31 13:50:29,1,[1418]
449,%%USERID%%,1,1,2013-01-31 15:53:07,1,[13050]
450,%%USERID%%,1,2,2013-01-31 15:53:22,3,[1919:2388:2629]
451,%%USERID%%,1,2,2013-01-31 15:53:24,4,[1919:2388:26291919:2388:2629:2629]
452,%%USERID%%,1,3,2013-01-31 15:54:34,1,[7683]
453,%%USERID%%,1,4,2013-01-31 15:54:50,1,[2935]
454,%%USERID%%,1,1,2013-02-01 08:06:33,1,[6729]
455,%%USERID%%,1,2,2013-02-01 08:07:00,4,[3265:4306:4890:5235]
456,%%USERID%%,1,3,2013-02-01 08:08:01,1,[4715]
457,%%USERID%%,1,4,2013-02-01 08:08:27,1,[4479]
458,%%USERID%%,1,1,2013-02-01 13:04:56,1,[3615]
459,%%USERID%%,1,2,2013-02-01 13:05:33,3,[5610:6228:6404]
460,%%USERID%%,1,3,2013-02-01 13:06:33,1,[5627]
461,%%USERID%%,1,4,2013-02-01 13:06:51,1,[2692]
462,%%USERID%%,1,1,2013-02-02 04:35:44,1,[6492]
463,%%USERID%%,1,2,2013-02-02 04:36:01,1,[3259]
464,%%USERID%%,1,3,2013-02-02 04:37:32,1,[3380]
465,%%USERID%%,1,4,2013-02-02 04:37:50,1,[3384]
466,%%USERID%%,1,1,2013-02-03 10:40:25,1,[6238]
467,%%USERID%%,1,2,2013-02-03 10:41:03,1,[7814]
468,%%USERID%%,1,2,2013-02-03 10:41:04,2,[78147814:7814]
469,%%USERID%%,1,3,2013-02-03 10:42:09,1,[3858]
470,%%USERID%%,1,4,2013-02-03 10:42:18,1,[1512]
471,%%USERID%%,1,1,2013-02-03 12:05:40,1,[2007]
472,%%USERID%%,1,2,2013-02-03 12:06:01,3,[1778:1910:2017]
473,%%USERID%%,1,3,2013-02-03 12:07:07,1,[3715]
474,%%USERID%%,1,4,2013-02-03 12:07:25,1,[1732]
475,%%USERID%%,1,1,2013-02-05 16:15:12,1,[3624]
476,%%USERID%%,1,2,2013-02-05 16:15:35,1,[3748]
477,%%USERID%%,1,3,2013-02-05 16:16:33,1,[3754]
478,%%USERID%%,1,4,2013-02-05 16:16:50,1,[2550]
479,%%USERID%%,1,1,2013-02-06 09:58:31,1,[6518]
480,%%USERID%%,1,2,2013-02-06 09:58:55,2,[3478:3979]
481,%%USERID%%,1,3,2013-02-06 09:59:53,1,[4058]
482,%%USERID%%,1,4,2013-02-06 10:00:16,1,[3878]
483,%%USERID%%,1,1,2013-02-06 11:34:59,1,[3880]
484,%%USERID%%,1,2,2013-02-06 11:35:05,1,[573]
485,%%USERID%%,1,3,2013-02-06 11:36:17,1,[5066]
486,%%USERID%%,1,4,2013-02-06 11:42:59,1,[2112]
487,%%USERID%%,1,1,2013-02-06 14:29:56,1,[7285]
488,%%USERID%%,1,2,2013-02-06 14:30:15,4,[1961:2559:2845:3096]
489,%%USERID%%,1,3,2013-02-06 14:31:18,1,[5217]
490,%%USERID%%,1,4,2013-02-06 14:31:36,1,[2951]
491,%%USERID%%,1,1,2013-02-07 11:28:39,1,[4629]
492,%%USERID%%,1,2,2013-02-07 11:28:45,1,[436]
493,%%USERID%%,1,3,2013-02-07 11:29:47,1,[2648]
494,%%USERID%%,1,4,2013-02-07 11:30:02,1,[1830]
495,%%USERID%%,1,1,2013-02-07 14:42:07,1,[3184]
496,%%USERID%%,1,2,2013-02-07 14:43:53,19,[312:618:1976:2544:3428:3826:5947:6511:7672:7839:7901:9289:10154:11638:13854:15785:16147:16427:17399]
497,%%USERID%%,1,3,2013-02-07 14:44:45,1,[2889]
498,%%USERID%%,1,4,2013-02-07 14:45:10,1,[3638]
499,000,5,1,2013-02-08 11:46:07,0,[0]
500,000,5,2,2013-02-08 11:57:13,0,[1]
501,000,5,3,2013-02-08 11:58:26,0,[5]
502,000,5,4,2013-02-08 12:00:40,0,[1]
503,000,5,5,2013-02-08 12:01:22,0,[0]
504,000,5,6,2013-02-08 12:02:28,0,[1]
505,000,5,7,2013-02-08 12:05:01,0,[2]
506,000,5,8,2013-02-08 12:06:12,0,[1]
507,000,5,9,2013-02-08 12:06:40,0,[3]
508,000,5,10,2013-02-08 12:09:11,0,[2]
509,%%USERID%%,1,1,2013-02-09 09:40:43,1,[3205]
510,%%USERID%%,1,2,2013-02-09 09:41:10,3,[3737:3921:4096]
511,%%USERID%%,1,3,2013-02-09 09:42:05,1,[2761]
512,%%USERID%%,1,4,2013-02-09 09:42:22,1,[2024]
513,%%USERID%%,2,1,2013-02-11 11:02:41,1,[2916]
514,%%USERID%%,2,2,2013-02-11 11:02:58,2,[1409:1723]
515,%%USERID%%,2,3,2013-02-11 11:15:41,1,[13700]
516,%%USERID%%,2,4,2013-02-11 11:16:48,3,[1617:1930:2166]
517,%%USERID%%,2,5,2013-02-11 11:16:59,1,[1462]
518,%%USERID%%,2,6,2013-02-11 11:17:29,1,[1401]
519,%%USERID%%,1,1,2013-02-11 11:24:48,1,[5317]
520,%%USERID%%,1,2,2013-02-11 11:25:05,2,[2751:2983]
521,%%USERID%%,1,3,2013-02-11 11:25:57,1,[4586]
522,%%USERID%%,1,4,2013-02-11 11:26:20,1,[4259]
523,%%USERID%%,3,1,2013-02-14 12:58:36,1,[27970]
524,%%USERID%%,3,2,2013-02-14 13:01:17,1,[26475]
525,%%USERID%%,3,3,2013-02-14 13:01:30,2,[1438:1637]
526,%%USERID%%,3,4,2013-02-14 13:01:52,3,[1210:1476:1781]
527,%%USERID%%,3,5,2013-02-14 13:02:10,5,[1578:1628:1770:2074:2285]
528,%%USERID%%,3,6,2013-02-14 13:06:53,2,[1375:1628]
529,%%USERID%%,3,7,2013-02-14 13:07:06,2,[1194:1445]
530,%%USERID%%,1,1,2013-02-16 12:07:30,1,[3105]
531,%%USERID%%,1,2,2013-02-16 12:07:57,2,[4786:5489]
532,%%USERID%%,1,3,2013-02-16 12:08:51,1,[5140]
533,%%USERID%%,1,4,2013-02-16 12:09:04,1,[2238]
534,%%USERID%%,1,1,2013-02-17 09:23:37,1,[4751]
535,%%USERID%%,1,2,2013-02-17 09:23:55,1,[3338]
536,%%USERID%%,1,3,2013-02-17 09:25:00,1,[4281]
537,%%USERID%%,1,4,2013-02-17 09:25:15,1,[2677]
538,%%USERID%%,1,1,2013-02-19 08:11:18,1,[4470]
539,%%USERID%%,1,2,2013-02-19 08:11:45,3,[2835:3694:4599]
540,%%USERID%%,1,3,2013-02-19 08:12:38,1,[2956]
541,%%USERID%%,1,4,2013-02-19 08:12:57,1,[3022]
542,%%USERID%%,1,1,2013-02-19 11:43:44,1,[7766]
543,%%USERID%%,1,2,2013-02-19 11:44:02,3,[2668:3020:3130]
544,%%USERID%%,1,3,2013-02-19 11:44:54,1,[3370]
545,%%USERID%%,1,4,2013-02-19 11:45:11,1,[2674]
546,10198,1,1,2013-02-21 05:11:44,1,[12278]
547,10198,1,2,2013-02-21 05:12:35,1,[8507]
548,10198,1,3,2013-02-21 05:13:57,1,[7740]
549,10198,1,4,2013-02-21 05:14:15,1,[3044]
